/* XPM */
static char * docking_to_ship_xpm[] = {
"135 27 8 1",
" 	c None",
".	c #000000",
"+	c #00FF00",
"@	c #000800",
"#	c #001800",
"$	c #003A00",
"%	c #005800",
"&	c #008C00",
".....@@@@@@@.......................@.........@.............................@.............................@..........@..................",
"....@#######@.....................@#@.......@#@...........................@#@...........................@#@........@#@.................",
"...@#$$$$$$$#@...................@#$#@.....@#$#@.........................@#$#@.........................@#$#@......@#$#@................",
"..@#$%%%%%%%$#@.................@#$%$#@...@#$%$#@.......................@#$%$#@.......................@#$%$#@....@#$%$#@...............",
".@#$%&&&&&&&%$#@.@@@@@.....@@@@@#$%&%$#@.@#$%&%$#@.@@@@.....@@@@@@@....@#$%&%$#@...@@@@@.........@@@@@#$%&%$#@@@@#$%&%$#@@@@@@.........",
"@#$%&+++++++&%$#@#####@...@#####$%&+&%$#@#$%&+&%$#@####@...@#######@..@#$%&+&%$#@.@#####@.......@#####$%&+&%$####$%&+&%$######@........",
"@#$%&+&&&&&&+&%$#$$$$$#@.@#$$$$$$%&+&%$##$#$%&%$$##$$$$#@.@#$$$$$$$#@.@#$%&+&%$#@@#$$$$$#@.....@#$$$$$$%&+&%$$$$##$%&%$$$$$$$$#@.......",
"@#$%&+&%%%%%&+&%$%%%%%$#@#$%%%%%$%&+&%$#$%$#$%$$%$$%%%%$#@#$%%%%%%%$#@@#$%&+&%$#@#$%%%%%$#@...@#$%%%%%%%&+&%%%%%$##$%$$%%%%%%%$#@......",
"@#$%&+&%$$$%&+&%%&&&&&%$#$%&&&&&%%&+&%$$%&%$%&%%&%%&&&&%$#$%&&&&&&&%$##$%&&+&&%$#$%&&&&&%$#@.@#$%&&&&&&%&+&&&&&&%$$%&%%&&&&&&&%$#@.....",
"@#$%&+&%$#$%&+&%&+++++&%$%&+++++&%&+&%$%&+&%&+&&+&&++++&%$%&+++++++&%$$%&+++++&%$%&+++++&%$#@#$%&++++++&&+++++++&%%&+&&+++++++&%$#@....",
"@#$%&+&%$#$%&+&&+&&&&&+&%&+&&&&&+&&+&%%&+&%&++&&+&+&&&&+&%&+&&&&&&+&%$#$%&&+&&%$%&+&&&&&+&%$#$%&+&&&&&&%&+&&&&&&+&&++&&+&&&&&&+&%$#@...",
"@#$%&+&%$#$%&+&+&%%%%%&+&+&%%%%%&+&+&%&+&%$%&+&&++&%%%%&+&+&%%%%%&+&%$##$%&+&%$%&+&%%%%%&+&%$%&+&%%%%%%%&+&%%%%%&+&&+&&+&%%%%%&+&%$#@..",
"@#$%&+&%$#$%&+&+&%$$$%&+&+&%$$$$%&&+&&+&%$$%&+&&+&%$$$%&+&+&%$$$%&+&%$##$%&+&%$%&+&%$$$%&+&%$$%&+&&&&&%%&+&%$$$%&+&&+&&+&%$$$%&+&%$#@..",
"@#$%&+&%$#$%&+&+&%$#$%&+&+&%$###$%&++++&%$$%&+&&+&%$#$%&+&+&%$#$%&+&%$##$%&+&%$%&+&%$#$%&+&%$#$%&+++++&%&+&%$#$%&+&&+&&+&%$#$%&+&%$#@..",
"@#$%&+&%$$$%&+&+&%$$$%&+&+&%$$$$%&&+&&&+&%$%&+&&+&%$#$%&+&+&%$$$%&+&%$##$%&+&%$%&+&%$$$%&+&%$##$%&&&&&+&&+&%$#$%&+&&+&&+&%$$$%&+&%$#@..",
"@#$%&+&%%%%%&+&+&%%%%%&+&+&%%%%%&+&+&%%&+&%%&+&&+&%$#$%&+&+&%%%%%&+&%$##$%&+&%%%&+&%%%%%&+&%$##$%%%%%%&+&+&%$#$%&+&&+&&+&%%%%%&+&%$#@..",
"@#$%&+&&&&&&+&%&+&&&&&+&%&+&&&&&+&&+&%$%&+&%&+&&+&%$#$%&+&&+&&&&&&+&%$##$%&+&&&&%&+&&&&&+&%$##$%&&&&&&+&&+&%$#$%&+&&+&&+&&&&&&+&%&%$#@.",
"@#$%&+++++++&%$%&+++++&%$%&+++++&%&+&%$$%&+&+++&+&%$#$%&+&%&+++++++&%$#@#$%&++++&%&+++++&%$##$%&++++++&%&+&%$#$%&+&+++&+++++++&%&+&%$#@",
".@#$%&&&&&&&%$#$%&&&&&%$#$%&&&&&%$%&%$##$%&%&&&%&%$#@#$%&%$%&&&&&&+&%$#@@#$%&&&&%$%&&&&&%$#@@#$%&&&&&&%$%&%$#@#$%&%&&&&+&&&&&&%$%&%$#@.",
"..@#$%%%%%%%$#@#$%%%%%$#@#$%%%%%$#$%$#@@#$%$%%%$%$#@.@#$%$$%%%%%%&+&%$#@.@#$%%%%$#$%%%%%$#@..@#$%%%%%%$#$%$#@.@#$%$%%%&+&%%%%%$#$%$#@..",
"...@#$$$$$$$#@.@#$$$$$#@.@#$$$$$#@#$#@..@#$#$$$#$#@...@#$$%&&&&&&+&%$#@...@#$$$$#@#$$$$$#@....@#$$$$$$#@#$#@...@#$#$$%&+&%$$$$#@#$#@...",
"....@#######@...@#####@...@#####@.@#@....@#@###@#@....@#$%&++++++&%$#@.....@####@.@#####@......@######@.@#@.....@#@#$%&+&%$###@.@#@....",
".....@@@@@@@.....@@@@@.....@@@@@...@......@.@@@.@......@#$%&&&&&&%$#@.......@@@@...@@@@@........@@@@@@...@.......@.@#$%&%$#@@@...@.....",
"........................................................@#$%%%%%%$#@................................................@#$%$#@............",
".........................................................@#$$$$$$#@..................................................@#$#@.............",
"..........................................................@######@....................................................@#@..............",
"...........................................................@@@@@@......................................................@..............."};
