/* XPM */
static char * intro_back_3_xpm[] = {
"320 200 33 1",
" 	c None",
".	c #022E2C",
"+	c #025A5C",
"@	c #585B5E",
"#	c #023634",
"$	c #3F3F41",
"%	c #587C78",
"&	c #477574",
"*	c #536B6D",
"=	c #3B5957",
"-	c #054F51",
";	c #674F67",
">	c #7E12A4",
",	c #3B515B",
"'	c #768684",
")	c #726962",
"!	c #1E5C5C",
"~	c #745E5C",
"{	c #772E8F",
"]	c #919293",
"^	c #2D2D2F",
"/	c #274D4B",
"(	c #2E6A6C",
"_	c #233B39",
":	c #927E5C",
"<	c #4B4B52",
"[	c #226664",
"}	c #727274",
"|	c #7A229C",
"1	c #6A8284",
"2	c #033E3C",
"3	c #466664",
"4	c #666664",
"................................................................................................................................................................................................................................................................................................................................",
"................................................................................................................................................................................................................................................................................................................................",
"................................................................................................................................................................................................................................................................................................................................",
"................................................................................................................................................................................................................................................................................................................................",
"................................................................................................................................................................................................................................................................................................................................",
"................................................................................................................................................................................................................................................................................................................................",
"................................................................................................................................................................................................................................................................................................................................",
"................................................................................................................................................................................................................................................................................................................................",
"................................................................................................................................................................................................................................................................................................................................",
"................................................................................................................................................................................................................................................................................................................................",
"................................................................................................................................................................................................................................................................................................................................",
"................................................................................................................................................................................................................................................................................................................................",
"................................................................................................................................................................................................................................................................................................................................",
"................................................................................................................................................................................................................................................................................................................................",
"............########################################........................####################################################################################################################################################################################################################################################",
"...........#2222222222222222222222222222222222222222##.....................#2222222222222222222222222222222222222222222222222222222222222222222222222222222222222222222222222222222222222222222222222222222222222222222222222222222222222222222222222222222222222222222222222222222222222222222222222222222222222222222222222222",
"..........#22--------------------------------------22#....................#22---------------------------------------------------------------------------------------------------------------------------------------------------------------------------------------------------------------------------------------------------",
"..........#2----------------------------------------2#....................#2----------------------------------------------------------------------------------------------------------------------------------------------------------------------------------------------------------------------------------------------------",
"..........#2--++++++++++++++++++++++++++++++++++++--2#....................#2--++++++++++++++++++++++++++++++++++++++++++++++++++++++++++++++++++++++++++++++++++++++++++++++++++++++++++++++++++++++++++++++++++++++++++++++++++++++++++++++++++++++++++++++++++++++++++++++++++++++++++++++++++++++++++++++++++++++++++++++++++",
"..........#2--++++++++++++++++++++++++++++++++++++--2#....................#2--++++++++++++++++++++++++++++++++++++++++++++++++++++++++++++++++++++++++++++++++++++++++++++++++++++++++++++++++++++++++++++++++++++++++++++++++++++++++++++++++++++++++++++++++++++++++++++++++++++++++++++++++++++++++++++++++++++++++++++++++++",
"..........#2--++++++++++++++++++++++++++++++++++++--2#....................#2--++++++++++++++++++++++++++++++++++++++++++++++++++++++++++++++++++++++++++++++++++++++++++++++++++++++++++++++++++++++++++++++++++++++++++++++++++++++++++++++++++++++++++++++++++++++++++++++++++++++++++++++++++++++++++++++++++++++++++++++++++",
"..........#2--++++++++++++++++++++++++++++++++++++--22####################22--+++++[[[((((((([[[[[[[((((((([[++++++[[[((((((([[[[[[[((((((([[++++++[[[((((((([[[[[[[((((((([[++++++[[[((((((([[[[[[[((((((([[++++++[[[((((((([[[[[[[((((((([[++++++[[[((((((([[[[[[[((((((([[++++++[[[((((((([[[[[[[((((((([[++++++[[[((((((([[[",
"..........#2--++++++++++++++++!!!!++++++++++++++++--222222222222222222222222--++++(%1111111111%&&%1111111111%(++++(%1111111111%&&%1111111111%(++++(%1111111111%&&%1111111111%(++++(%1111111111%&&%1111111111%(++++(%1111111111%&&%1111111111%(++++(%1111111111%&&%1111111111%(++++(%1111111111%&&%1111111111%(++++(%1111111111%&",
"..........#2--+++++++++++++++!3*3=++++++++++++++++---222222222-----22222222---+++[%]]]]]]]]]]]1&&1]]]]]]]]]]]%[++[%]]]]]]]]]]]1&&1]]]]]]]]]]]%[++[%]]]]]]]]]]]1&&1]]]]]]]]]]]%[++[%]]]]]]]]]]]1&&1]]]]]]]]]]]%[++[%]]]]]]]]]]]1&&1]]]]]]]]]]]%[++[%]]]]]]]]]]]1&&1]]]]]]]]]]]%[++[%]]]]]]]]]]]1&&1]]]]]]]]]]]%[++[%]]]]]]]]]]]1&",
"..........#2--+++++++++++++++[*4@=-++++++++++++++++-----//////-----/////-----++++[1]]]]]]]]]]]1((1]]]]]]]]]]]1[++[1]]]]]]]]]]]1((1]]]]]]]]]]]1[++[1]]]]]]]]]]]1((1]]]]]]]]]]]1[++[1]]]]]]]]]]]1((1]]]]]]]]]]]1[++[1]]]]]]]]]]]1((1]]]]]]]]]]]1[++[1]]]]]]]]]]]1((1]]]]]]]]]]]1[++[1]]]]]]]]]]]1((1]]]]]]]]]]]1[++[1]]]]]]]]]]]1(",
"..........#2--+++++++++++++++[*4@,-+++++++++++++++++----/,=@********@=,/----+++++[1]]]]]]]]]]]1((1]]]]]]]]]]]1[++[1]]]]]]]]]]]1((1]]]]]]]]]]]1[++[1]]]]]]]]]]]1((1]]]]]]]]]]]1[++[1]]]]]]]]]]]1((1]]]]]]]]]]]1[++[1]]]]]]]]]]]1((1]]]]]]]]]]]1[++[1]]]]]]]]]]]1((1]]]]]]]]]]]1[++[1]]]]]]]]]]]1((1]]]]]]]]]]]1[++[1]]]]]]]]]]]1(",
"..........#2--+++++++++++++++[*4@,-++++++++++++++++++++-=@@4}}}}}}}}4@@=-++++++++(1]]]]]]]]]]]1((1]]]]]]]]]]]1(++(1]]]]]]]]]]]1((1]]]]]]]]]]]1(++(1]]]]]]]]]]]1((1]]]]]]]]]]]1(++(1]]]]]]]]]]]1((1]]]]]]]]]]]1(++(1]]]]]]]]]]]1((1]]]]]]]]]]]1(++(1]]]]]]]]]]]1((1]]]]]]]]]]]1(++(1]]]]]]]]]]]1((1]]]]]]]]]]]1(++(1]]]]]]]]]]]1(",
"..........#2--+++++++++++++++[*4@,-++++++++++++++++++++-=@@)}}}}}}}})@@=-++++++++(1]]]]]]]]]]]1((1]]]]]]]]]]]1(++(1]]]]]]]]]]]1((1]]]]]]]]]]]1(++(1]]]]]]]]]]]1((1]]]]]]]]]]]1(++(1]]]]]]]]]]]1((1]]]]]]]]]]]1(++(1]]]]]]]]]]]1((1]]]]]]]]]]]1(++(1]]]]]]]]]]]1((1]]]]]]]]]]]1(++(1]]]]]]]]]]]1((1]]]]]]]]]]]1(++(1]]]]]]]]]]]1(",
"..........#2--+++++++++++++++[*4@,-++++++++++++++++++++-=@@)}}}}}}}})@@=-++++++++(1]]]]]]]]]]]1((1]]]]]]]]]]]1(++(1]]]]]]]]]]]1((1]]]]]]]]]]]1(++(1]]]]]]]]]]]1((1]]]]]]]]]]]1(++(1]]]]]]]]]]]1((1]]]]]]]]]]]1(++(1]]]]]]]]]]]1((1]]]]]]]]]]]1(++(1]]]]]]]]]]]1((1]]]]]]]]]]]1(++(1]]]]]]]]]]]1((1]]]]]]]]]]]1(++(1]]]]]]]]]]]1(",
"..........#2--+++++++++++++++!3@@,-++++++++++++++++++++-=@@)}}}}}}}})@@=-++++++++(1]]]]]]]]]]]'&&']]]]]]]]]]]1(++(1]]]]]]]]]]]'&&']]]]]]]]]]]1(++(1]]]]]]]]]]]'&&']]]]]]]]]]]1(++(1]]]]]]]]]]]'&&']]]]]]]]]]]1(++(1]]]]]]]]]]]'&&']]]]]]]]]]]1(++(1]]]]]]]]]]]'&&']]]]]]]]]]]1(++(1]]]]]]]]]]]'&&']]]]]]]]]]]1(++(1]]]]]]]]]]]'&",
"..........#2--+++++++++++++++!==,/-++++++++++++++++++++-=@@)}}}}}}}})@@=-++++++++(1]]]]]]]]]]]]'']]]]]]]]]]]]1(++(1]]]]]]]]]]]]'']]]]]]]]]]]]1(++(1]]]]]]]]]]]]'']]]]]]]]]]]]1(++(1]]]]]]]]]]]]'']]]]]]]]]]]]1(++(1]]]]]]]]]]]]'']]]]]]]]]]]]1(++(1]]]]]]]]]]]]'']]]]]]]]]]]]1(++(1]]]]]]]]]]]]'']]]]]]]]]]]]1(++(1]]]]]]]]]]]]'",
"..........#2--+++++++++++++++++---+++++++++++++++++++++-=@@)}}}}}}}})@@=-++++++++(1]]]]]]]]]]]]]]]]]]]]]]]]]]1(++(1]]]]]]]]]]]]]]]]]]]]]]]]]]1(++(1]]]]]]]]]]]]]]]]]]]]]]]]]]1(++(1]]]]]]]]]]]]]]]]]]]]]]]]]]1(++(1]]]]]]]]]]]]]]]]]]]]]]]]]]1(++(1]]]]]]]]]]]]]]]]]]]]]]]]]]1(++(1]]]]]]]]]]]]]]]]]]]]]]]]]]1(++(1]]]]]]]]]]]]]",
"..........#2--+++++++++++++++++++++++++++++++++++++++++-=@@)}}}}}}}})@@=-++++++++(1]]]]]]]]]]]]]]]]]]]]]]]]]]1(++(1]]]]]]]]]]]]]]]]]]]]]]]]]]1(++(1]]]]]]]]]]]]]]]]]]]]]]]]]]1(++(1]]]]]]]]]]]]]]]]]]]]]]]]]]1(++(1]]]]]]]]]]]]]]]]]]]]]]]]]]1(++(1]]]]]]]]]]]]]]]]]]]]]]]]]]1(++(1]]]]]]]]]]]]]]]]]]]]]]]]]]1(++(1]]]]]]]]]]]]]",
"..........#2--+++++!![[[!!!++++++++++!![[[!!!++++++++++-=@@4))))))))4@@=-++++++++[1]]]]]]]]]]]]]]]]]]]]]]]]]]1(++[1]]]]]]]]]]]]]]]]]]]]]]]]]]1(++[1]]]]]]]]]]]]]]]]]]]]]]]]]]1(++[1]]]]]]]]]]]]]]]]]]]]]]]]]]1(++[1]]]]]]]]]]]]]]]]]]]]]]]]]]1(++[1]]]]]]]]]]]]]]]]]]]]]]]]]]1(++[1]]]]]]]]]]]]]]]]]]]]]]]]]]1(++[1]]]]]]]]]]]]]",
"..........#2--++++!3*****3=+++++++++!3*****3=++++++++++!=@@@@@@@@@@@@@@=-++++++++[%111111']]]]]'']]]]]'111111%[++[%111111']]]]]'']]]]]'111111%[++[%111111']]]]]'']]]]]'111111%[++[%111111']]]]]'']]]]]'111111%[++[%111111']]]]]'']]]]]'111111%[++[%111111']]]]]'']]]]]'111111%[++[%111111']]]]]'']]]]]'111111%[++[%111111']]]]]'",
"..........#2--++++[*44444@=-++++++++[*44444@=-+++++++++!=@@@@@@@@@@@@@@=-++++++++[&&(((((&']]]'&&']]]'&(((((&&[++[&&(((((&']]]'&&']]]'&(((((&&[++[&&(((((&']]]'&&']]]'&(((((&&[++[&&(((((&']]]'&&']]]'&(((((&&[++[&&(((((&']]]'&&']]]'&(((((&&[++[&&(((((&']]]'&&']]]'&(((((&&[++[&&(((((&']]]'&&']]]'&(((((&&[++[&&(((((&']]]'&",
"..........#2--++++!3@@@@@@,-++++++++!3@@@@@@,-+++++++++-=@@@@@@@@@@@@@@=!++++++++[&&(((((&']]]'&&']]]'&(((((&&[++[&&(((((&']]]'&&']]]'&(((((&&[++[&&(((((&']]]'&&']]]'&(((((&&[++[&&(((((&']]]'&&']]]'&(((((&&[++[&&(((((&']]]'&&']]]'&(((((&&[++[&&(((((&']]]'&&']]]'&(((((&&[++[&&(((((&']]]'&&']]]'&(((((&&[++[&&(((((&']]]'&",
"..........#2--++++!==,,,,,/-++++++++!==,,,,,/-+++++++++-=@@@@@@@@@@@@@@=!++++++++[%111111']]]]]'']]]]]'111111%[++[%111111']]]]]'']]]]]'111111%[++[%111111']]]]]'']]]]]'111111%[++[%111111']]]]]'']]]]]'111111%[++[%111111']]]]]'']]]]]'111111%[++[%111111']]]]]'']]]]]'111111%[++[%111111']]]]]'']]]]]'111111%[++[%111111']]]]]'",
"..........#2--++++++-------+++++++++++-------++++++++++-=@@4))))))))4@@=-++++++++[1]]]]]]]]]]]]]]]]]]]]]]]]]]1(++[1]]]]]]]]]]]]]]]]]]]]]]]]]]1(++[1]]]]]]]]]]]]]]]]]]]]]]]]]]1(++[1]]]]]]]]]]]]]]]]]]]]]]]]]]1(++[1]]]]]]]]]]]]]]]]]]]]]]]]]]1(++[1]]]]]]]]]]]]]]]]]]]]]]]]]]1(++[1]]]]]]]]]]]]]]]]]]]]]]]]]]1(++[1]]]]]]]]]]]]]",
"..........#2--+++++++++++++++++++++++++++++++++++++++++-=@@)}}}}}}}})@@=-++++++++[1]]]]]]]]]]]]]]]]]]]]]]]]]]1(++[1]]]]]]]]]]]]]]]]]]]]]]]]]]1(++[1]]]]]]]]]]]]]]]]]]]]]]]]]]1(++[1]]]]]]]]]]]]]]]]]]]]]]]]]]1(++[1]]]]]]]]]]]]]]]]]]]]]]]]]]1(++[1]]]]]]]]]]]]]]]]]]]]]]]]]]1(++[1]]]]]]]]]]]]]]]]]]]]]]]]]]1(++[1]]]]]]]]]]]]]",
"..........#2--++++++++++++++++!!!!+++++++++++++++++++++-=@@)}}}}}}}})@@=-++++++++(1]]]]]]]]]]]]]]]]]]]]]]]]]]1(++(1]]]]]]]]]]]]]]]]]]]]]]]]]]1(++(1]]]]]]]]]]]]]]]]]]]]]]]]]]1(++(1]]]]]]]]]]]]]]]]]]]]]]]]]]1(++(1]]]]]]]]]]]]]]]]]]]]]]]]]]1(++(1]]]]]]]]]]]]]]]]]]]]]]]]]]1(++(1]]]]]]]]]]]]]]]]]]]]]]]]]]1(++(1]]]]]]]]]]]]]",
"..........#2--+++++++++++++++!3*3=+++++++++++++++++++++-=@@)}}}}}}}})@@=-++++++++(1]]]]]]]]]]]]'']]]]]]]]]]]]1(++(1]]]]]]]]]]]]'']]]]]]]]]]]]1(++(1]]]]]]]]]]]]'']]]]]]]]]]]]1(++(1]]]]]]]]]]]]'']]]]]]]]]]]]1(++(1]]]]]]]]]]]]'']]]]]]]]]]]]1(++(1]]]]]]]]]]]]'']]]]]]]]]]]]1(++(1]]]]]]]]]]]]'']]]]]]]]]]]]1(++(1]]]]]]]]]]]]'",
"..........#2--+++++++++++++++[*4@=-++++++++++++++++++++-=@@)}}}}}}}})@@=-++++++++(1]]]]]]]]]]]'&&']]]]]]]]]]]1(++(1]]]]]]]]]]]'&&']]]]]]]]]]]1(++(1]]]]]]]]]]]'&&']]]]]]]]]]]1(++(1]]]]]]]]]]]'&&']]]]]]]]]]]1(++(1]]]]]]]]]]]'&&']]]]]]]]]]]1(++(1]]]]]]]]]]]'&&']]]]]]]]]]]1(++(1]]]]]]]]]]]'&&']]]]]]]]]]]1(++(1]]]]]]]]]]]'&",
"..........#2--+++++++++++++++[*4@,-++++++++++++++++++++-=@@)}}}}}}}})@@=-++++++++(1]]]]]]]]]]]1((1]]]]]]]]]]]1(++(1]]]]]]]]]]]1((1]]]]]]]]]]]1(++(1]]]]]]]]]]]1((1]]]]]]]]]]]1(++(1]]]]]]]]]]]1((1]]]]]]]]]]]1(++(1]]]]]]]]]]]1((1]]]]]]]]]]]1(++(1]]]]]]]]]]]1((1]]]]]]]]]]]1(++(1]]]]]]]]]]]1((1]]]]]]]]]]]1(++(1]]]]]]]]]]]1(",
"..........#2--+++++++++++++++[*4@,-++++++++++++++++++++-=@@)}}}}}}}})@@=-++++++++(1]]]]]]]]]]]1((1]]]]]]]]]]]1(++(1]]]]]]]]]]]1((1]]]]]]]]]]]1(++(1]]]]]]]]]]]1((1]]]]]]]]]]]1(++(1]]]]]]]]]]]1((1]]]]]]]]]]]1(++(1]]]]]]]]]]]1((1]]]]]]]]]]]1(++(1]]]]]]]]]]]1((1]]]]]]]]]]]1(++(1]]]]]]]]]]]1((1]]]]]]]]]]]1(++(1]]]]]]]]]]]1(",
"..........#2--+++++++++++++++[*4@,-++++++++++++++++++++-=@@4}}}}}}}}4@@=-++++++++(1]]]]]]]]]]]1((1]]]]]]]]]]]1(++(1]]]]]]]]]]]1((1]]]]]]]]]]]1(++(1]]]]]]]]]]]1((1]]]]]]]]]]]1(++(1]]]]]]]]]]]1((1]]]]]]]]]]]1(++(1]]]]]]]]]]]1((1]]]]]]]]]]]1(++(1]]]]]]]]]]]1((1]]]]]]]]]]]1(++(1]]]]]]]]]]]1((1]]]]]]]]]]]1(++(1]]]]]]]]]]]1(",
"..........#2--+++++++++++++++[*4@,-+++++++++++++++++----/,=@********@=,/----+++++(1]]]]]]]]]]]1((1]]]]]]]]]]]1(++(1]]]]]]]]]]]1((1]]]]]]]]]]]1(++(1]]]]]]]]]]]1((1]]]]]]]]]]]1(++(1]]]]]]]]]]]1((1]]]]]]]]]]]1(++(1]]]]]]]]]]]1((1]]]]]]]]]]]1(++(1]]]]]]]]]]]1((1]]]]]]]]]]]1(++(1]]]]]]]]]]]1((1]]]]]]]]]]]1(++(1]]]]]]]]]]]1(",
"..........#2--+++++++++++++++!3@@,-++++++++++++++++-----////--------////-----++++[1]]]]]]]]]]]1((1]]]]]]]]]]]1[++[1]]]]]]]]]]]1((1]]]]]]]]]]]1[++[1]]]]]]]]]]]1((1]]]]]]]]]]]1[++[1]]]]]]]]]]]1((1]]]]]]]]]]]1[++[1]]]]]]]]]]]1((1]]]]]]]]]]]1[++[1]]]]]]]]]]]1((1]]]]]]]]]]]1[++[1]]]]]]]]]]]1((1]]]]]]]]]]]1[++[1]]]]]]]]]]]1(",
"..........#2--+++++++++++++++!==,/-+++++++++++++++---222222----------222222---+++[%]]]]]]]]]]]1&&1]]]]]]]]]]]%[++[%]]]]]]]]]]]1&&1]]]]]]]]]]]%[++[%]]]]]]]]]]]1&&1]]]]]]]]]]]%[++[%]]]]]]]]]]]1&&1]]]]]]]]]]]%[++[%]]]]]]]]]]]1&&1]]]]]]]]]]]%[++[%]]]]]]]]]]]1&&1]]]]]]]]]]]%[++[%]]]]]]]]]]]1&&1]]]]]]]]]]]%[++[%]]]]]]]]]]]1&",
"..........#2--+++++++++++++++++---++++++++++++++++--222222222222222222222222--++++(%1111111111%&&%1111111111%(++++(%1111111111%&&%1111111111%(++++(%1111111111%&&%1111111111%(++++(%1111111111%&&%1111111111%(++++(%1111111111%&&%1111111111%(++++(%1111111111%&&%1111111111%(++++(%1111111111%&&%1111111111%(++++(%1111111111%&",
"..........#2--++++++++++++++++++++++++++++++++++++--22####################22--+++++[[[((((((([[[[[[[((((((([[++++++[[[((((((([[[[[[[((((((([[++++++[[[((((((([[[[[[[((((((([[++++++[[[((((((([[[[[[[((((((([[++++++[[[((((((([[[[[[[((((((([[++++++[[[((((((([[[[[[[((((((([[++++++[[[((((((([[[[[[[((((((([[++++++[[[((((((([[[",
"..........#2--++++++++++++++++++++++++++++++++++++--2#....................#2--++++++++++++++++++++++++++++++++++++++++++++++++++++++++++++++++++++++++++++++++++++++++++++++++++++++++++++++++++++++++++++++++++++++++++++++++++++++++++++++++++++++++++++++++++++++++++++++++++++++++++++++++++++++++++++++++++++++++++++++++++",
"..........#2--++++++++++++++++++++++++++++++++++++--2#....................#2--++++++++++++++++++++++++++++++++++++++++++++++++++++++++++++++++++++++++++++++++++++++++++++++++++++++++++++++++++++++++++++++++++++++++++++++++++++++++++++++++++++++++++++++++++++++++++++++++++++++++++++++++++++++++++++++++++++++++++++++++++",
"..........#2--++++++++++++++++++++++++++++++++++++--2#....................#2--+++++[[[((((((([[[[[[[((((((([[++++++[[[((((((([[[[[[[((((((([[++++++[[[((((((([[[[[[[((((((([[++++++++++++++++++++++++++++++++++++++[[[((((((([[[[[[[((((((([[++++++[[[((((((([[[[[[[((((((([[++++++[[[((((((([[[[[[[((((((([[++++++[[[((((((([[[",
"..........#2--++++++++++++++++!!!!++++++++++++++++--2#....................#2--++++(%1111111111%&&%1111111111%(++++(%1111111111%&&%1111111111%(++++(%1111111111%&&%1111111111%(++++++++++++++++++++++++++++++++++++(%1111111111%&&%1111111111%(++++(%1111111111%&&%1111111111%(++++(%1111111111%&&%1111111111%(++++(%1111111111%&",
"..........#2--+++++++++++++++!3*3=++++++++++++++++--2#....................#2--+++[%]]]]]]]]]]]1&&1]]]]]]]]]]]%[++[%]]]]]]]]]]]1&&1]]]]]]]]]]]%[++[%]]]]]]]]]]]1&&1]]]]]]]]]]]%[++++++++++++++++++++++++++++++++++[%]]]]]]]]]]]1&&1]]]]]]]]]]]%[++[%]]]]]]]]]]]1&&1]]]]]]]]]]]%[++[%]]]]]]]]]]]1&&1]]]]]]]]]]]%[++[%]]]]]]]]]]]1&",
"..........#2--+++++++++++++++[*4@=-+++++++++++++++--2#....................#2--+++[1]]]]]]]]]]]1((1]]]]]]]]]]]1[++[1]]]]]]]]]]]1((1]]]]]]]]]]]1[++[1]]]]]]]]]]]1((1]]]]]]]]]]]1[+++++![[[[[[[[[[[[[[[[[[[[[[++++++[1]]]]]]]]]]]1((1]]]]]]]]]]]1[++[1]]]]]]]]]]]1((1]]]]]]]]]]]1[++[1]]]]]]]]]]]1((1]]]]]]]]]]]1[++[1]]]]]]]]]]]1(",
"..........#2--+++++++++++++++[*4@,-+++++++++++++++--2#....................#2--+++[1]]]]]]]]]]]1((1]]]]]]]]]]]1[++[1]]]]]]]]]]]1((1]]]]]]]]]]]1[++[1]]]]]]]]]]]1((1]]]]]]]]]]]1[++++!3*********************&[+++++[1]]]]]]]]]]]1((1]]]]]]]]]]]1[++[1]]]]]]]]]]]1((1]]]]]]]]]]]1[++[1]]]]]]]]]]]1((1]]]]]]]]]]]1[++[1]]]]]]]]]]]1(",
"..........#2--+++++++++++++++[*4@,-+++++++++++++++--2#....................#2--+++(1]]]]]]]]]]]1((1]]]]]]]]]]]1(++(1]]]]]]]]]]]1((1]]]]]]]]]]]1(++(1]]]]]]]]]]]1((1]]]]]]]]]]]1(++++!34@@@@@@@@@@@@@@@@@@4}*[+++++(1]]]]]]]]]]]1((1]]]]]]]]]]]1(++(1]]]]]]]]]]]1((1]]]]]]]]]]]1(++(1]]]]]]]]]]]1((1]]]]]]]]]]]1(++(1]]]]]]]]]]]1(",
"..........#2--+++++++++++++++[*4@,-+++++++++++++++--2#....................#2--+++(1]]]]]]]]]]]1((1]]]]]]]]]]]1(++(1]]]]]]]]]]]1((1]]]]]]]]]]]1(++(1]]]]]]]]]]]1((1]]]]]]]]]]]1(++++!3@<,,,,,,,,,,,,,,,,<@4*[+++++(1]]]]]]]]]]]1((1]]]]]]]]]]]1(++(1]]]]]]]]]]]1((1]]]]]]]]]]]1(++(1]]]]]]]]]]]1((1]]]]]]]]]]]1(++(1]]]]]]]]]]]1(",
"..........#2--+++++++++++++++[*4@,-+++++++++++++++--2#....................#2--+++(1]]]]]]]]]]]1((1]]]]]]]]]]]1(++(1]]]]]]]]]]]1((1]]]]]]]]]]]1(++(1]]]]]]]]]]]1((1]]]]]]]]]]]1(++++!=@<,,,,,,,,,,,,<;;~~~4*[+++++(1]]]]]]]]]]]1((1]]]]]]]]]]]1(++(1]]]]]]]]]]]1((1]]]]]]]]]]]1(++(1]]]]]]]]]]]1((1]]]]]]]]]]]1(++(1]]]]]]]]]]]1(",
"..........#2--+++++++++++++++!3@@,-+++++++++++++++--2#....................#2--+++(1]]]]]]]]]]]'&&']]]]]]]]]]]1(++(1]]]]]]]]]]]'&&']]]]]]]]]]]1(++(1]]]]]]]]]]]'&&']]]]]]]]]]]1(++++-,<<<<<<<<<<<<$<;~)::))*[+++++(1]]]]]]]]]]]'&&']]]]]]]]]]]1(++(1]]]]]]]]]]]'&&']]]]]]]]]]]1(++(1]]]]]]]]]]]'&&']]]]]]]]]]]1(++(1]]]]]]]]]]]'&",
"..........#2--+++++++++++++++!==,/-+++++++++++++++--2#....................#2--+++(1]]]]]]]]]]]]'']]]]]]]]]]]]1(++(1]]]]]]]]]]]]'']]]]]]]]]]]]1(++(1]]]]]]]]]]]]'']]]]]]]]]]]]1(++++-/$<<<<<<<<<<$$$;~)::))*[+++++(1]]]]]]]]]]]]'']]]]]]]]]]]]1(++(1]]]]]]]]]]]]'']]]]]]]]]]]]1(++(1]]]]]]]]]]]]'']]]]]]]]]]]]1(++(1]]]]]]]]]]]]'",
"..........#2--+++++++++++++++++---++++++++++++++++--2#....................#2--+++(1]]]]]]]]]]]]]]]]]]]]]]]]]]1(++(1]]]]]]]]]]]]]]]]]]]]]]]]]]1(++(1]]]]]]]]]]]]]]]]]]]]]]]]]]1(++++-/$<<<<<<<<<<$$$;~~))~)*[+++++(1]]]]]]]]]]]]]]]]]]]]]]]]]]1(++(1]]]]]]]]]]]]]]]]]]]]]]]]]]1(++(1]]]]]]]]]]]]]]]]]]]]]]]]]]1(++(1]]]]]]]]]]]]]",
"..........#2--++++++++++++++++++++++++++++++++++++--2#....................#2--+++(1]]]]]]]]]]]]]]]]]]]]]]]]]]1(++(1]]]]]]]]]]]]]]]]]]]]]]]]]]1(++(1]]]]]]]]]]]]]]]]]]]]]]]]]]1(++++-_$$$$$$$$$$$$$$@~~~~~4*[+++++(1]]]]]]]]]]]]]]]]]]]]]]]]]]1(++(1]]]]]]]]]]]]]]]]]]]]]]]]]]1(++(1]]]]]]]]]]]]]]]]]]]]]]]]]]1(++(1]]]]]]]]]]]]]",
"..........#2--+++++!![[[!!!++++++++++!![[[!!!+++++--2#....................#2--+++[1]]]]]]]]]]]]]]]]]]]]]]]]]]1(++[1]]]]]]]]]]]]]]]]]]]]]]]]]]1(++[1]]]]]]]]]]]]]]]]]]]]]]]]]]1(++++-_$$$$$$$$$$$^^$@;;;;;4*[+++++[1]]]]]]]]]]]]]]]]]]]]]]]]]]1(++[1]]]]]]]]]]]]]]]]]]]]]]]]]]1(++[1]]]]]]]]]]]]]]]]]]]]]]]]]]1(++[1]]]]]]]]]]]]]",
"..........#2--++++!3*****3=+++++++++!3*****3=+++++--2#....................#2--+++[%111111']]]]]'']]]]]'111111%[++[%111111']]]]]'']]]]]'111111%[++[%111111']]]]]'']]]]]'111111%[++++-_^^^^^^^^^^^^^$;;{|{;4*[+++++[%111111']]]]]'']]]]]'111111%[++[%111111']]]]]'']]]]]'111111%[++[%111111']]]]]'']]]]]'111111%[++[%111111']]]]]'",
"..........#2--++++[*44444@=-++++++++[*44444@=-++++--2#....................#2--+++[&&(((((&']]]'&&']]]'&(((((&&[++[&&(((((&']]]'&&']]]'&(((((&&[++[&&(((((&']]]'&&']]]'&(((((&&[++++2.^^^^^^^^^^^^^$;;|>|;4*[+++++[&&(((((&']]]'&&']]]'&(((((&&[++[&&(((((&']]]'&&']]]'&(((((&&[++[&&(((((&']]]'&&']]]'&(((((&&[++[&&(((((&']]]'&",
"..........#2--++++!3@@@@@@,-++++++++!3@@@@@@,-++++--2#....................#2--+++[&&(((((&']]]'&&']]]'&(((((&&[++[&&(((((&']]]'&&']]]'&(((((&&[++[&&(((((&']]]'&&']]]'&(((((&&[++++-.^^^^^^^^^^^^^$;;|>|;4*[+++++[&&(((((&']]]'&&']]]'&(((((&&[++[&&(((((&']]]'&&']]]'&(((((&&[++[&&(((((&']]]'&&']]]'&(((((&&[++[&&(((((&']]]'&",
"..........#2--++++!==,,,,,/-++++++++!==,,,,,/-++++--2#....................#2--+++[%111111']]]]]'']]]]]'111111%[++[%111111']]]]]'']]]]]'111111%[++[%111111']]]]]'']]]]]'111111%[++++-.^^^^^^^^^^^^^$;;{|{;4*[+++++[%111111']]]]]'']]]]]'111111%[++[%111111']]]]]'']]]]]'111111%[++[%111111']]]]]'']]]]]'111111%[++[%111111']]]]]'",
"..........#2--++++++-------+++++++++++-------+++++--2#....................#2--+++[1]]]]]]]]]]]]]]]]]]]]]]]]]]1(++[1]]]]]]]]]]]]]]]]]]]]]]]]]]1(++[1]]]]]]]]]]]]]]]]]]]]]]]]]]1(++++-_^^^^^^^^^^^^^$@;;;;;4*[+++++[1]]]]]]]]]]]]]]]]]]]]]]]]]]1(++[1]]]]]]]]]]]]]]]]]]]]]]]]]]1(++[1]]]]]]]]]]]]]]]]]]]]]]]]]]1(++[1]]]]]]]]]]]]]",
"..........#2--++++++++++++++++++++++++++++++++++++--2#....................#2--+++[1]]]]]]]]]]]]]]]]]]]]]]]]]]1(++[1]]]]]]]]]]]]]]]]]]]]]]]]]]1(++[1]]]]]]]]]]]]]]]]]]]]]]]]]]1(++++-_$$$$$$$$$$$$$$;~~~~~4*[+++++[1]]]]]]]]]]]]]]]]]]]]]]]]]]1(++[1]]]]]]]]]]]]]]]]]]]]]]]]]]1(++[1]]]]]]]]]]]]]]]]]]]]]]]]]]1(++[1]]]]]]]]]]]]]",
"..........#2--++++++++++++++++!!!!++++++++++++++++--2#....................#2--+++(1]]]]]]]]]]]]]]]]]]]]]]]]]]1(++(1]]]]]]]]]]]]]]]]]]]]]]]]]]1(++(1]]]]]]]]]]]]]]]]]]]]]]]]]]1(++++-/$$$$$$$$$$$$$$;~~))~)*[+++++(1]]]]]]]]]]]]]]]]]]]]]]]]]]1(++(1]]]]]]]]]]]]]]]]]]]]]]]]]]1(++(1]]]]]]]]]]]]]]]]]]]]]]]]]]1(++(1]]]]]]]]]]]]]",
"..........#2--+++++++++++++++!3*3=++++++++++++++++--2#....................#2--+++(1]]]]]]]]]]]]'']]]]]]]]]]]]1(++(1]]]]]]]]]]]]'']]]]]]]]]]]]1(++(1]]]]]]]]]]]]'']]]]]]]]]]]]1(++++-/$<<<<<<<<<<$$$;~)::))*[+++++(1]]]]]]]]]]]]'']]]]]]]]]]]]1(++(1]]]]]]]]]]]]'']]]]]]]]]]]]1(++(1]]]]]]]]]]]]'']]]]]]]]]]]]1(++(1]]]]]]]]]]]]'",
"..........#2--+++++++++++++++[*4@=-+++++++++++++++--2#....................#2--+++(1]]]]]]]]]]]'&&']]]]]]]]]]]1(++(1]]]]]]]]]]]'&&']]]]]]]]]]]1(++(1]]]]]]]]]]]'&&']]]]]]]]]]]1(++++-,<<<<<<<<<<<<$<;~)::))*[+++++(1]]]]]]]]]]]'&&']]]]]]]]]]]1(++(1]]]]]]]]]]]'&&']]]]]]]]]]]1(++(1]]]]]]]]]]]'&&']]]]]]]]]]]1(++(1]]]]]]]]]]]'&",
"..........#2--+++++++++++++++[*4@,-+++++++++++++++--2#....................#2--+++(1]]]]]]]]]]]1((1]]]]]]]]]]]1(++(1]]]]]]]]]]]1((1]]]]]]]]]]]1(++(1]]]]]]]]]]]1((1]]]]]]]]]]]1(++++!=@<,,,,,,,,,,,,<;;~~~4*[+++++(1]]]]]]]]]]]1((1]]]]]]]]]]]1(++(1]]]]]]]]]]]1((1]]]]]]]]]]]1(++(1]]]]]]]]]]]1((1]]]]]]]]]]]1(++(1]]]]]]]]]]]1(",
"..........#2--+++++++++++++++[*4@,-+++++++++++++++--2#....................#2--+++(1]]]]]]]]]]]1((1]]]]]]]]]]]1(++(1]]]]]]]]]]]1((1]]]]]]]]]]]1(++(1]]]]]]]]]]]1((1]]]]]]]]]]]1(++++!3@<,,,,,,,,,,,,,,,,<@4*[+++++(1]]]]]]]]]]]1((1]]]]]]]]]]]1(++(1]]]]]]]]]]]1((1]]]]]]]]]]]1(++(1]]]]]]]]]]]1((1]]]]]]]]]]]1(++(1]]]]]]]]]]]1(",
"..........#2--+++++++++++++++[*4@,-+++++++++++++++--2#....................#2--+++(1]]]]]]]]]]]1((1]]]]]]]]]]]1(++(1]]]]]]]]]]]1((1]]]]]]]]]]]1(++(1]]]]]]]]]]]1((1]]]]]]]]]]]1(++++!34@@@@@@@@@@@@@@@@@@4}*[+++++(1]]]]]]]]]]]1((1]]]]]]]]]]]1(++(1]]]]]]]]]]]1((1]]]]]]]]]]]1(++(1]]]]]]]]]]]1((1]]]]]]]]]]]1(++(1]]]]]]]]]]]1(",
"..........#2--+++++++++++++++[*4@,-+++++++++++++++--2#....................#2--+++(1]]]]]]]]]]]1((1]]]]]]]]]]]1(++(1]]]]]]]]]]]1((1]]]]]]]]]]]1(++(1]]]]]]]]]]]1((1]]]]]]]]]]]1(++++!3*********************&[+++++(1]]]]]]]]]]]1((1]]]]]]]]]]]1(++(1]]]]]]]]]]]1((1]]]]]]]]]]]1(++(1]]]]]]]]]]]1((1]]]]]]]]]]]1(++(1]]]]]]]]]]]1(",
"..........#2--+++++++++++++++!3@@,-+++++++++++++++--2#....................#2--+++[1]]]]]]]]]]]1((1]]]]]]]]]]]1[++[1]]]]]]]]]]]1((1]]]]]]]]]]]1[++[1]]]]]]]]]]]1((1]]]]]]]]]]]1[+++++![[[[[[[[[[[[[[[[[[[[[[++++++[1]]]]]]]]]]]1((1]]]]]]]]]]]1[++[1]]]]]]]]]]]1((1]]]]]]]]]]]1[++[1]]]]]]]]]]]1((1]]]]]]]]]]]1[++[1]]]]]]]]]]]1(",
"..........#2--+++++++++++++++!==,/-+++++++++++++++--2#....................#2--+++[%]]]]]]]]]]]1&&1]]]]]]]]]]]%[++[%]]]]]]]]]]]1&&1]]]]]]]]]]]%[++[%]]]]]]]]]]]1&&1]]]]]]]]]]]%[++++++++++++++++++++++++++++++++++[%]]]]]]]]]]]1&&1]]]]]]]]]]]%[++[%]]]]]]]]]]]1&&1]]]]]]]]]]]%[++[%]]]]]]]]]]]1&&1]]]]]]]]]]]%[++[%]]]]]]]]]]]1&",
"..........#2--+++++++++++++++++---++++++++++++++++--2#....................#2--++++(%1111111111%&&%1111111111%(++++(%1111111111%&&%1111111111%(++++(%1111111111%&&%1111111111%(++++++++++++++++++++++++++++++++++++(%1111111111%&&%1111111111%(++++(%1111111111%&&%1111111111%(++++(%1111111111%&&%1111111111%(++++(%1111111111%&",
"..........#2--++++++++++++++++++++++++++++++++++++--2#....................#2--+++++[[[((((((([[[[[[[((((((([[++++++[[[((((((([[[[[[[((((((([[++++++[[[((((((([[[[[[[((((((([[++++++++++++++++++++++++++++++++++++++[[[((((((([[[[[[[((((((([[++++++[[[((((((([[[[[[[((((((([[++++++[[[((((((([[[[[[[((((((([[++++++[[[((((((([[[",
"..........#2--++++++++++++++++++++++++++++++++++++--2#....................#2--++++++++++++++++++++++++++++++++++++++++++++++++++++++++++++++++++++++++++++++++++++++++++++++++++++++++++++++++++++++++++++++++++++++++++++++++++++++++++++++++++++++++++++++++++++++++++++++++++++++++++++++++++++++++++++++++++++++++++++++++++",
"..........#2--++++++++++++++++++++++++++++++++++++--2#....................#2--++++++++++++++++++++++++++++++++++++++++++++++++++++++++++++++++++++++++++++++++++++++++++++++++++++++++++++++++++++++++++++++++++++++++++++++++++++++++++++++++++++++++++++++++++++++++++++++++++++++++++++++++++++++++++++++++++++++++++++++++++",
"..........#2--++++[[[[[[[[[[[[[[[[[[[[[[[[[[[[++++--2#....................#2--+++++[[[((((((([[[[[[[((((((([[++++++[[[((((((([[[[[[[((((((([[++++++[[[((((((([[[[[[[((((((([[++++++[[[((((((([[[[[[[((((((([[++++++[[[((((((([[[[[[[((((((([[++++++[[[((((((([[[[[[[((((((([[++++++[[[((((((([[[[[[[((((((([[++++++[[[((((((([[[",
"..........#2--+++[&&&&&&&&&&&&&&&&&&&&&&&&&&33!+++--2#....................#2--++++(%1111111111%&&%1111111111%(++++(%1111111111%&&%1111111111%(++++(%1111111111%&&%1111111111%(++++(%1111111111%&&%1111111111%(++++(%1111111111%&&%1111111111%(++++(%1111111111%&&%1111111111%(++++(%1111111111%&&%1111111111%(++++(%1111111111%&",
"..........#2--+++[&&[[[[[[[[[[[[[[[[[[[[[[[[!/-+++--2#....................#2--+++[%]]]]]]]]]]]1&&1]]]]]]]]]]]%[++[%]]]]]]]]]]]1&&1]]]]]]]]]]]%[++[%]]]]]]]]]]]1&&1]]]]]]]]]]]%[++[%]]]]]]]]]]]1&&1]]]]]]]]]]]%[++[%]]]]]]]]]]]1&&1]]]]]]]]]]]%[++[%]]]]]]]]]]]1&&1]]]]]]]]]]]%[++[%]]]]]]]]]]]1&&1]]]]]]]]]]]%[++[%]]]]]]]]]]]1&",
"..........#2--+++[&[+++++--------------+++++-/-+++--2#....................#2--+++[1]]]]]]]]]]]1((1]]]]]]]]]]]1[++[1]]]]]]]]]]]1((1]]]]]]]]]]]1[++[1]]]]]]]]]]]1((1]]]]]]]]]]]1[++[1]]]]]]]]]]]1((1]]]]]]]]]]]1[++[1]]]]]]]]]]]1((1]]]]]]]]]]]1[++[1]]]]]]]]]]]1((1]]]]]]]]]]]1[++[1]]]]]]]]]]]1((1]]]]]]]]]]]1[++[1]]]]]]]]]]]1(",
"..........#2--+++[&[+++---222222222222---+++-2-+++--2#....................#2--+++[1]]]]]]]]]]]1((1]]]]]]]]]]]1[++[1]]]]]]]]]]]1((1]]]]]]]]]]]1[++[1]]]]]]]]]]]1((1]]]]]]]]]]]1[++[1]]]]]]]]]]]1((1]]]]]]]]]]]1[++[1]]]]]]]]]]]1((1]]]]]]]]]]]1[++[1]]]]]]]]]]]1((1]]]]]]]]]]]1[++[1]]]]]]]]]]]1((1]]]]]]]]]]]1[++[1]]]]]]]]]]]1(",
"..........#2--+++[&[+++--2############2--+++-2-+++--2#....................#2--+++(1]]]]]]]]]]]1((1]]]]]]]]]]]1(++(1]]]]]]]]]]]1((1]]]]]]]]]]]1(++(1]]]]]]]]]]]1((1]]]]]]]]]]]1(++(1]]]]]]]]]]]1((1]]]]]]]]]]]1(++(1]]]]]]]]]]]1((1]]]]]]]]]]]1(++(1]]]]]]]]]]]1((1]]]]]]]]]]]1(++(1]]]]]]]]]]]1((1]]]]]]]]]]]1(++(1]]]]]]]]]]]1(",
"..........#2--+++[&[+----22#........##2------2-+++--2#....................#2--+++(1]]]]]]]]]]]1((1]]]]]]]]]]]1(++(1]]]]]]]]]]]1((1]]]]]]]]]]]1(++(1]]]]]]]]]]]1((1]]]]]]]]]]]1(++(1]]]]]]]]]]]1((1]]]]]]]]]]]1(++(1]]]]]]]]]]]1((1]]]]]]]]]]]1(++(1]]]]]]]]]]]1((1]]]]]]]]]]]1(++(1]]]]]]]]]]]1((1]]]]]]]]]]]1(++(1]]]]]]]]]]]1(",
"..........#2--+++[&[+-----22########22-------2-+++--2#....................#2--+++(1]]]]]]]]]]]1((1]]]]]]]]]]]1(++(1]]]]]]]]]]]1((1]]]]]]]]]]]1(++(1]]]]]]]]]]]1((1]]]]]]]]]]]1(++(1]]]]]]]]]]]1((1]]]]]]]]]]]1(++(1]]]]]]]]]]]1((1]]]]]]]]]]]1(++(1]]]]]]]]]]]1((1]]]]]]]]]]]1(++(1]]]]]]]]]]]1((1]]]]]]]]]]]1(++(1]]]]]]]]]]]1(",
"..........#2--+++[&[--22----22222222----22---2-+++--2#....................#2--+++(1]]]]]]]]]]]'&&']]]]]]]]]]]1(++(1]]]]]]]]]]]'&&']]]]]]]]]]]1(++(1]]]]]]]]]]]'&&']]]]]]]]]]]1(++(1]]]]]]]]]]]'&&']]]]]]]]]]]1(++(1]]]]]]]]]]]'&&']]]]]]]]]]]1(++(1]]]]]]]]]]]'&&']]]]]]]]]]]1(++(1]]]]]]]]]]]'&&']]]]]]]]]]]1(++(1]]]]]]]]]]]'&",
"..........#2--+++[&[-2##2--------------2##2--2-+++--2#....................#2--+++(1]]]]]]]]]]]]'']]]]]]]]]]]]1(++(1]]]]]]]]]]]]'']]]]]]]]]]]]1(++(1]]]]]]]]]]]]'']]]]]]]]]]]]1(++(1]]]]]]]]]]]]'']]]]]]]]]]]]1(++(1]]]]]]]]]]]]'']]]]]]]]]]]]1(++(1]]]]]]]]]]]]'']]]]]]]]]]]]1(++(1]]]]]]]]]]]]'']]]]]]]]]]]]1(++(1]]]]]]]]]]]]'",
"..........#2--+++[&[-2##2--+--------+--2##2--2-+++--2#....................#2--+++(1]]]]]]]]]]]]]]]]]]]]]]]]]]1(++(1]]]]]]]]]]]]]]]]]]]]]]]]]]1(++(1]]]]]]]]]]]]]]]]]]]]]]]]]]1(++(1]]]]]]]]]]]]]]]]]]]]]]]]]]1(++(1]]]]]]]]]]]]]]]]]]]]]]]]]]1(++(1]]]]]]]]]]]]]]]]]]]]]]]]]]1(++(1]]]]]]]]]]]]]]]]]]]]]]]]]]1(++(1]]]]]]]]]]]]]",
"..........#2--+++[&[-2#.#2------------2#.#2--2-+++--2#....................#2--+++(1]]]]]]]]]]]]]]]]]]]]]]]]]]1(++(1]]]]]]]]]]]]]]]]]]]]]]]]]]1(++(1]]]]]]]]]]]]]]]]]]]]]]]]]]1(++(1]]]]]]]]]]]]]]]]]]]]]]]]]]1(++(1]]]]]]]]]]]]]]]]]]]]]]]]]]1(++(1]]]]]]]]]]]]]]]]]]]]]]]]]]1(++(1]]]]]]]]]]]]]]]]]]]]]]]]]]1(++(1]]]]]]]]]]]]]",
"..........#2--+++[&[-2#.#2------------2#.#2--2-+++--2#....................#2--+++[1]]]]]]]]]]]]]]]]]]]]]]]]]]1(++[1]]]]]]]]]]]]]]]]]]]]]]]]]]1(++[1]]]]]]]]]]]]]]]]]]]]]]]]]]1(++[1]]]]]]]]]]]]]]]]]]]]]]]]]]1(++[1]]]]]]]]]]]]]]]]]]]]]]]]]]1(++[1]]]]]]]]]]]]]]]]]]]]]]]]]]1(++[1]]]]]]]]]]]]]]]]]]]]]]]]]]1(++[1]]]]]]]]]]]]]",
"..........#2--+++[&[-2#.#2----+[[+----2#.#2--2-+++--2#....................#2--+++[%111111']]]]]'']]]]]'111111%[++[%111111']]]]]'']]]]]'111111%[++[%111111']]]]]'']]]]]'111111%[++[%111111']]]]]'']]]]]'111111%[++[%111111']]]]]'']]]]]'111111%[++[%111111']]]]]'']]]]]'111111%[++[%111111']]]]]'']]]]]'111111%[++[%111111']]]]]'",
"..........#2--+++[&[-2#.#2----[&&[----2#.#2--2-+++--2#....................#2--+++[&&(((((&']]]'&&']]]'&(((((&&[++[&&(((((&']]]'&&']]]'&(((((&&[++[&&(((((&']]]'&&']]]'&(((((&&[++[&&(((((&']]]'&&']]]'&(((((&&[++[&&(((((&']]]'&&']]]'&(((((&&[++[&&(((((&']]]'&&']]]'&(((((&&[++[&&(((((&']]]'&&']]]'&(((((&&[++[&&(((((&']]]'&",
"..........#2--+++[&[-2#.#2----[&&[----2#.#2--2-+++--2#....................#2--+++[&&(((((&']]]'&&']]]'&(((((&&[++[&&(((((&']]]'&&']]]'&(((((&&[++[&&(((((&']]]'&&']]]'&(((((&&[++[&&(((((&']]]'&&']]]'&(((((&&[++[&&(((((&']]]'&&']]]'&(((((&&[++[&&(((((&']]]'&&']]]'&(((((&&[++[&&(((((&']]]'&&']]]'&(((((&&[++[&&(((((&']]]'&",
"..........#2--+++[&[-2#.#2----+[[+----2#.#2--2-+++--2#....................#2--+++[%111111']]]]]'']]]]]'111111%[++[%111111']]]]]'']]]]]'111111%[++[%111111']]]]]'']]]]]'111111%[++[%111111']]]]]'']]]]]'111111%[++[%111111']]]]]'']]]]]'111111%[++[%111111']]]]]'']]]]]'111111%[++[%111111']]]]]'']]]]]'111111%[++[%111111']]]]]'",
"..........#2--+++[&[-2#.#2------------2#.#2--2-+++--2#....................#2--+++[1]]]]]]]]]]]]]]]]]]]]]]]]]]1(++[1]]]]]]]]]]]]]]]]]]]]]]]]]]1(++[1]]]]]]]]]]]]]]]]]]]]]]]]]]1(++[1]]]]]]]]]]]]]]]]]]]]]]]]]]1(++[1]]]]]]]]]]]]]]]]]]]]]]]]]]1(++[1]]]]]]]]]]]]]]]]]]]]]]]]]]1(++[1]]]]]]]]]]]]]]]]]]]]]]]]]]1(++[1]]]]]]]]]]]]]",
"..........#2--+++[&[-2#.#2------------2#.#2--2-+++--2#....................#2--+++[1]]]]]]]]]]]]]]]]]]]]]]]]]]1(++[1]]]]]]]]]]]]]]]]]]]]]]]]]]1(++[1]]]]]]]]]]]]]]]]]]]]]]]]]]1(++[1]]]]]]]]]]]]]]]]]]]]]]]]]]1(++[1]]]]]]]]]]]]]]]]]]]]]]]]]]1(++[1]]]]]]]]]]]]]]]]]]]]]]]]]]1(++[1]]]]]]]]]]]]]]]]]]]]]]]]]]1(++[1]]]]]]]]]]]]]",
"..........#2--+++[&[-2##2--+--------+--2##2--2-+++--2#....................#2--+++(1]]]]]]]]]]]]]]]]]]]]]]]]]]1(++(1]]]]]]]]]]]]]]]]]]]]]]]]]]1(++(1]]]]]]]]]]]]]]]]]]]]]]]]]]1(++(1]]]]]]]]]]]]]]]]]]]]]]]]]]1(++(1]]]]]]]]]]]]]]]]]]]]]]]]]]1(++(1]]]]]]]]]]]]]]]]]]]]]]]]]]1(++(1]]]]]]]]]]]]]]]]]]]]]]]]]]1(++(1]]]]]]]]]]]]]",
"..........#2--+++[&[-2##2--------------2##2--2-+++--2#....................#2--+++(1]]]]]]]]]]]]'']]]]]]]]]]]]1(++(1]]]]]]]]]]]]'']]]]]]]]]]]]1(++(1]]]]]]]]]]]]'']]]]]]]]]]]]1(++(1]]]]]]]]]]]]'']]]]]]]]]]]]1(++(1]]]]]]]]]]]]'']]]]]]]]]]]]1(++(1]]]]]]]]]]]]'']]]]]]]]]]]]1(++(1]]]]]]]]]]]]'']]]]]]]]]]]]1(++(1]]]]]]]]]]]]'",
"..........#2--+++[&[--22----22222222----22---2-+++--2#....................#2--+++(1]]]]]]]]]]]'&&']]]]]]]]]]]1(++(1]]]]]]]]]]]'&&']]]]]]]]]]]1(++(1]]]]]]]]]]]'&&']]]]]]]]]]]1(++(1]]]]]]]]]]]'&&']]]]]]]]]]]1(++(1]]]]]]]]]]]'&&']]]]]]]]]]]1(++(1]]]]]]]]]]]'&&']]]]]]]]]]]1(++(1]]]]]]]]]]]'&&']]]]]]]]]]]1(++(1]]]]]]]]]]]'&",
"..........#2--+++[&[+-----22########22-------2-+++--2#....................#2--+++(1]]]]]]]]]]]1((1]]]]]]]]]]]1(++(1]]]]]]]]]]]1((1]]]]]]]]]]]1(++(1]]]]]]]]]]]1((1]]]]]]]]]]]1(++(1]]]]]]]]]]]1((1]]]]]]]]]]]1(++(1]]]]]]]]]]]1((1]]]]]]]]]]]1(++(1]]]]]]]]]]]1((1]]]]]]]]]]]1(++(1]]]]]]]]]]]1((1]]]]]]]]]]]1(++(1]]]]]]]]]]]1(",
"..........#2--+++[&[+----22#........##2------2-+++--2#....................#2--+++(1]]]]]]]]]]]1((1]]]]]]]]]]]1(++(1]]]]]]]]]]]1((1]]]]]]]]]]]1(++(1]]]]]]]]]]]1((1]]]]]]]]]]]1(++(1]]]]]]]]]]]1((1]]]]]]]]]]]1(++(1]]]]]]]]]]]1((1]]]]]]]]]]]1(++(1]]]]]]]]]]]1((1]]]]]]]]]]]1(++(1]]]]]]]]]]]1((1]]]]]]]]]]]1(++(1]]]]]]]]]]]1(",
"..........#2--+++[&[+++--2############2--+++-2-+++--2#....................#2--+++(1]]]]]]]]]]]1((1]]]]]]]]]]]1(++(1]]]]]]]]]]]1((1]]]]]]]]]]]1(++(1]]]]]]]]]]]1((1]]]]]]]]]]]1(++(1]]]]]]]]]]]1((1]]]]]]]]]]]1(++(1]]]]]]]]]]]1((1]]]]]]]]]]]1(++(1]]]]]]]]]]]1((1]]]]]]]]]]]1(++(1]]]]]]]]]]]1((1]]]]]]]]]]]1(++(1]]]]]]]]]]]1(",
"..........#2--+++[&[+++---222222222222---+++-2-+++--2#....................#2--+++(1]]]]]]]]]]]1((1]]]]]]]]]]]1(++(1]]]]]]]]]]]1((1]]]]]]]]]]]1(++(1]]]]]]]]]]]1((1]]]]]]]]]]]1(++(1]]]]]]]]]]]1((1]]]]]]]]]]]1(++(1]]]]]]]]]]]1((1]]]]]]]]]]]1(++(1]]]]]]]]]]]1((1]]]]]]]]]]]1(++(1]]]]]]]]]]]1((1]]]]]]]]]]]1(++(1]]]]]]]]]]]1(",
"..........#2--+++[&[+++------------------+++-2-+++--2#....................#2--+++[1]]]]]]]]]]]1((1]]]]]]]]]]]1[++[1]]]]]]]]]]]1((1]]]]]]]]]]]1[++[1]]]]]]]]]]]1((1]]]]]]]]]]]1[++[1]]]]]]]]]]]1((1]]]]]]]]]]]1[++[1]]]]]]]]]]]1((1]]]]]]]]]]]1[++[1]]]]]]]]]]]1((1]]]]]]]]]]]1[++[1]]]]]]]]]]]1((1]]]]]]]]]]]1[++[1]]]]]]]]]]]1(",
"..........#2--+++[3!------------------------22-+++--2#....................#2--+++[%]]]]]]]]]]]1&&1]]]]]]]]]]]%[++[%]]]]]]]]]]]1&&1]]]]]]]]]]]%[++[%]]]]]]]]]]]1&&1]]]]]]]]]]]%[++[%]]]]]]]]]]]1&&1]]]]]]]]]]]%[++[%]]]]]]]]]]]1&&1]]]]]]]]]]]%[++[%]]]]]]]]]]]1&&1]]]]]]]]]]]%[++[%]]]]]]]]]]]1&&1]]]]]]]]]]]%[++[%]]]]]]]]]]]1&",
"..........#2--+++[3//2222222222222222222222222-+++--2#....................#2--++++(%1111111111%&&%1111111111%(++++(%1111111111%&&%1111111111%(++++(%1111111111%&&%1111111111%(++++(%1111111111%&&%1111111111%(++++(%1111111111%&&%1111111111%(++++(%1111111111%&&%1111111111%(++++(%1111111111%&&%1111111111%(++++(%1111111111%&",
"..........#2--+++++---------------------------++++--2#....................#2--+++++[[[((((((([[[[[[[((((((([[++++++[[[((((((([[[[[[[((((((([[++++++[[[((((((([[[[[[[((((((([[++++++[[[((((((([[[[[[[((((((([[++++++[[[((((((([[[[[[[((((((([[++++++[[[((((((([[[[[[[((((((([[++++++[[[((((((([[[[[[[((((((([[++++++[[[((((((([[[",
"..........#2--++++++++++++++++++++++++++++++++++++--2#....................#2--++++++++++++++++++++++++++++++++++++++++++++++++++++++++++++++++++++++++++++++++++++++++++++++++++++++++++++++++++++++++++++++++++++++++++++++++++++++++++++++++++++++++++++++++++++++++++++++++++++++++++++++++++++++++++++++++++++++++++++++++++",
"..........#2--++++++++++++++++++++++++++++++++++++--2#....................#2--++++++++++++++++++++++++++++++++++++++++++++++++++++++++++++++++++++++++++++++++++++++++++++++++++++++++++++++++++++++++++++++++++++++++++++++++++++++++++++++++++++++++++++++++++++++++++++++++++++++++++++++++++++++++++++++++++++++++++++++++++",
"..........#2--++++++++++++++++++++++++++++++++++++--2#....................#2--+++++[[[((((((([[[[[[[((((((([[++++++[[[((((((([[[[[[[((((((([[++++++[[[((((((([[[[[[[((((((([[++++++[[[((((((([[[[[[[((((((([[++++++[[[((((((([[[[[[[((((((([[++++++[[[((((((([[[[[[[((((((([[++++++[[[((((((([[[[[[[((((((([[++++++[[[((((((([[[",
"..........#2--++++++++++++++++!!!!++++++++++++++++--2#....................#2--++++(%1111111111%&&%1111111111%(++++(%1111111111%&&%1111111111%(++++(%1111111111%&&%1111111111%(++++(%1111111111%&&%1111111111%(++++(%1111111111%&&%1111111111%(++++(%1111111111%&&%1111111111%(++++(%1111111111%&&%1111111111%(++++(%1111111111%&",
"..........#2--+++++++++++++++!3*3=++++++++++++++++--2#....................#2--+++[%]]]]]]]]]]]1&&1]]]]]]]]]]]%[++[%]]]]]]]]]]]1&&1]]]]]]]]]]]%[++[%]]]]]]]]]]]1&&1]]]]]]]]]]]%[++[%]]]]]]]]]]]1&&1]]]]]]]]]]]%[++[%]]]]]]]]]]]1&&1]]]]]]]]]]]%[++[%]]]]]]]]]]]1&&1]]]]]]]]]]]%[++[%]]]]]]]]]]]1&&1]]]]]]]]]]]%[++[%]]]]]]]]]]]1&",
"..........#2--+++++++++++++++[*4@=-+++++++++++++++--2#....................#2--+++[1]]]]]]]]]]]1((1]]]]]]]]]]]1[++[1]]]]]]]]]]]1((1]]]]]]]]]]]1[++[1]]]]]]]]]]]1((1]]]]]]]]]]]1[++[1]]]]]]]]]]]1((1]]]]]]]]]]]1[++[1]]]]]]]]]]]1((1]]]]]]]]]]]1[++[1]]]]]]]]]]]1((1]]]]]]]]]]]1[++[1]]]]]]]]]]]1((1]]]]]]]]]]]1[++[1]]]]]]]]]]]1(",
"..........#2--+++++++++++++++[*4@,-+++++++++++++++--2#....................#2--+++[1]]]]]]]]]]]1((1]]]]]]]]]]]1[++[1]]]]]]]]]]]1((1]]]]]]]]]]]1[++[1]]]]]]]]]]]1((1]]]]]]]]]]]1[++[1]]]]]]]]]]]1((1]]]]]]]]]]]1[++[1]]]]]]]]]]]1((1]]]]]]]]]]]1[++[1]]]]]]]]]]]1((1]]]]]]]]]]]1[++[1]]]]]]]]]]]1((1]]]]]]]]]]]1[++[1]]]]]]]]]]]1(",
"..........#2--+++++++++++++++[*4@,-+++++++++++++++--2#....................#2--+++(1]]]]]]]]]]]1((1]]]]]]]]]]]1(++(1]]]]]]]]]]]1((1]]]]]]]]]]]1(++(1]]]]]]]]]]]1((1]]]]]]]]]]]1(++(1]]]]]]]]]]]1((1]]]]]]]]]]]1(++(1]]]]]]]]]]]1((1]]]]]]]]]]]1(++(1]]]]]]]]]]]1((1]]]]]]]]]]]1(++(1]]]]]]]]]]]1((1]]]]]]]]]]]1(++(1]]]]]]]]]]]1(",
"..........#2--+++++++++++++++[*4@,-+++++++++++++++--2#....................#2--+++(1]]]]]]]]]]]1((1]]]]]]]]]]]1(++(1]]]]]]]]]]]1((1]]]]]]]]]]]1(++(1]]]]]]]]]]]1((1]]]]]]]]]]]1(++(1]]]]]]]]]]]1((1]]]]]]]]]]]1(++(1]]]]]]]]]]]1((1]]]]]]]]]]]1(++(1]]]]]]]]]]]1((1]]]]]]]]]]]1(++(1]]]]]]]]]]]1((1]]]]]]]]]]]1(++(1]]]]]]]]]]]1(",
"..........#2--+++++++++++++++[*4@,-+++++++++++++++--2#....................#2--+++(1]]]]]]]]]]]1((1]]]]]]]]]]]1(++(1]]]]]]]]]]]1((1]]]]]]]]]]]1(++(1]]]]]]]]]]]1((1]]]]]]]]]]]1(++(1]]]]]]]]]]]1((1]]]]]]]]]]]1(++(1]]]]]]]]]]]1((1]]]]]]]]]]]1(++(1]]]]]]]]]]]1((1]]]]]]]]]]]1(++(1]]]]]]]]]]]1((1]]]]]]]]]]]1(++(1]]]]]]]]]]]1(",
"..........#2--+++++++++++++++!3@@,-+++++++++++++++--2#....................#2--+++(1]]]]]]]]]]]'&&']]]]]]]]]]]1(++(1]]]]]]]]]]]'&&']]]]]]]]]]]1(++(1]]]]]]]]]]]'&&']]]]]]]]]]]1(++(1]]]]]]]]]]]'&&']]]]]]]]]]]1(++(1]]]]]]]]]]]'&&']]]]]]]]]]]1(++(1]]]]]]]]]]]'&&']]]]]]]]]]]1(++(1]]]]]]]]]]]'&&']]]]]]]]]]]1(++(1]]]]]]]]]]]'&",
"..........#2--+++++++++++++++!==,/-+++++++++++++++--2#....................#2--+++(1]]]]]]]]]]]]'']]]]]]]]]]]]1(++(1]]]]]]]]]]]]'']]]]]]]]]]]]1(++(1]]]]]]]]]]]]'']]]]]]]]]]]]1(++(1]]]]]]]]]]]]'']]]]]]]]]]]]1(++(1]]]]]]]]]]]]'']]]]]]]]]]]]1(++(1]]]]]]]]]]]]'']]]]]]]]]]]]1(++(1]]]]]]]]]]]]'']]]]]]]]]]]]1(++(1]]]]]]]]]]]]'",
"..........#2--+++++++++++++++++---++++++++++++++++--2#....................#2--+++(1]]]]]]]]]]]]]]]]]]]]]]]]]]1(++(1]]]]]]]]]]]]]]]]]]]]]]]]]]1(++(1]]]]]]]]]]]]]]]]]]]]]]]]]]1(++(1]]]]]]]]]]]]]]]]]]]]]]]]]]1(++(1]]]]]]]]]]]]]]]]]]]]]]]]]]1(++(1]]]]]]]]]]]]]]]]]]]]]]]]]]1(++(1]]]]]]]]]]]]]]]]]]]]]]]]]]1(++(1]]]]]]]]]]]]]",
"..........#2--++++++++++++++++++++++++++++++++++++--2#....................#2--+++(1]]]]]]]]]]]]]]]]]]]]]]]]]]1(++(1]]]]]]]]]]]]]]]]]]]]]]]]]]1(++(1]]]]]]]]]]]]]]]]]]]]]]]]]]1(++(1]]]]]]]]]]]]]]]]]]]]]]]]]]1(++(1]]]]]]]]]]]]]]]]]]]]]]]]]]1(++(1]]]]]]]]]]]]]]]]]]]]]]]]]]1(++(1]]]]]]]]]]]]]]]]]]]]]]]]]]1(++(1]]]]]]]]]]]]]",
"..........#2--+++++!![[[!!!++++++++++!![[[!!!+++++--2#....................#2--+++[1]]]]]]]]]]]]]]]]]]]]]]]]]]1(++[1]]]]]]]]]]]]]]]]]]]]]]]]]]1(++[1]]]]]]]]]]]]]]]]]]]]]]]]]]1(++[1]]]]]]]]]]]]]]]]]]]]]]]]]]1(++[1]]]]]]]]]]]]]]]]]]]]]]]]]]1(++[1]]]]]]]]]]]]]]]]]]]]]]]]]]1(++[1]]]]]]]]]]]]]]]]]]]]]]]]]]1(++[1]]]]]]]]]]]]]",
"..........#2--++++!3*****3=+++++++++!3*****3=+++++--2#....................#2--+++[%111111']]]]]'']]]]]'111111%[++[%111111']]]]]'']]]]]'111111%[++[%111111']]]]]'']]]]]'111111%[++[%111111']]]]]'']]]]]'111111%[++[%111111']]]]]'']]]]]'111111%[++[%111111']]]]]'']]]]]'111111%[++[%111111']]]]]'']]]]]'111111%[++[%111111']]]]]'",
"..........#2--++++[*44444@=-++++++++[*44444@=-++++--2#....................#2--+++[&&(((((&']]]'&&']]]'&(((((&&[++[&&(((((&']]]'&&']]]'&(((((&&[++[&&(((((&']]]'&&']]]'&(((((&&[++[&&(((((&']]]'&&']]]'&(((((&&[++[&&(((((&']]]'&&']]]'&(((((&&[++[&&(((((&']]]'&&']]]'&(((((&&[++[&&(((((&']]]'&&']]]'&(((((&&[++[&&(((((&']]]'&",
"..........#2--++++!3@@@@@@,-++++++++!3@@@@@@,-++++--2#....................#2--+++[&&(((((&']]]'&&']]]'&(((((&&[++[&&(((((&']]]'&&']]]'&(((((&&[++[&&(((((&']]]'&&']]]'&(((((&&[++[&&(((((&']]]'&&']]]'&(((((&&[++[&&(((((&']]]'&&']]]'&(((((&&[++[&&(((((&']]]'&&']]]'&(((((&&[++[&&(((((&']]]'&&']]]'&(((((&&[++[&&(((((&']]]'&",
"..........#2--++++!==,,,,,/-++++++++!==,,,,,/-++++--2#....................#2--+++[%111111']]]]]'']]]]]'111111%[++[%111111']]]]]'']]]]]'111111%[++[%111111']]]]]'']]]]]'111111%[++[%111111']]]]]'']]]]]'111111%[++[%111111']]]]]'']]]]]'111111%[++[%111111']]]]]'']]]]]'111111%[++[%111111']]]]]'']]]]]'111111%[++[%111111']]]]]'",
"..........#2--++++++-------+++++++++++-------+++++--2#....................#2--+++[1]]]]]]]]]]]]]]]]]]]]]]]]]]1(++[1]]]]]]]]]]]]]]]]]]]]]]]]]]1(++[1]]]]]]]]]]]]]]]]]]]]]]]]]]1(++[1]]]]]]]]]]]]]]]]]]]]]]]]]]1(++[1]]]]]]]]]]]]]]]]]]]]]]]]]]1(++[1]]]]]]]]]]]]]]]]]]]]]]]]]]1(++[1]]]]]]]]]]]]]]]]]]]]]]]]]]1(++[1]]]]]]]]]]]]]",
"..........#2--++++++++++++++++++++++++++++++++++++--2#....................#2--+++[1]]]]]]]]]]]]]]]]]]]]]]]]]]1(++[1]]]]]]]]]]]]]]]]]]]]]]]]]]1(++[1]]]]]]]]]]]]]]]]]]]]]]]]]]1(++[1]]]]]]]]]]]]]]]]]]]]]]]]]]1(++[1]]]]]]]]]]]]]]]]]]]]]]]]]]1(++[1]]]]]]]]]]]]]]]]]]]]]]]]]]1(++[1]]]]]]]]]]]]]]]]]]]]]]]]]]1(++[1]]]]]]]]]]]]]",
"..........#2--++++++++++++++++!!!!++++++++++++++++--2#....................#2--+++(1]]]]]]]]]]]]]]]]]]]]]]]]]]1(++(1]]]]]]]]]]]]]]]]]]]]]]]]]]1(++(1]]]]]]]]]]]]]]]]]]]]]]]]]]1(++(1]]]]]]]]]]]]]]]]]]]]]]]]]]1(++(1]]]]]]]]]]]]]]]]]]]]]]]]]]1(++(1]]]]]]]]]]]]]]]]]]]]]]]]]]1(++(1]]]]]]]]]]]]]]]]]]]]]]]]]]1(++(1]]]]]]]]]]]]]",
"..........#2--+++++++++++++++!3*3=++++++++++++++++--2#....................#2--+++(1]]]]]]]]]]]]'']]]]]]]]]]]]1(++(1]]]]]]]]]]]]'']]]]]]]]]]]]1(++(1]]]]]]]]]]]]'']]]]]]]]]]]]1(++(1]]]]]]]]]]]]'']]]]]]]]]]]]1(++(1]]]]]]]]]]]]'']]]]]]]]]]]]1(++(1]]]]]]]]]]]]'']]]]]]]]]]]]1(++(1]]]]]]]]]]]]'']]]]]]]]]]]]1(++(1]]]]]]]]]]]]'",
"..........#2--+++++++++++++++[*4@=-+++++++++++++++--2#....................#2--+++(1]]]]]]]]]]]'&&']]]]]]]]]]]1(++(1]]]]]]]]]]]'&&']]]]]]]]]]]1(++(1]]]]]]]]]]]'&&']]]]]]]]]]]1(++(1]]]]]]]]]]]'&&']]]]]]]]]]]1(++(1]]]]]]]]]]]'&&']]]]]]]]]]]1(++(1]]]]]]]]]]]'&&']]]]]]]]]]]1(++(1]]]]]]]]]]]'&&']]]]]]]]]]]1(++(1]]]]]]]]]]]'&",
"..........#2--+++++++++++++++[*4@,-+++++++++++++++--2#....................#2--+++(1]]]]]]]]]]]1((1]]]]]]]]]]]1(++(1]]]]]]]]]]]1((1]]]]]]]]]]]1(++(1]]]]]]]]]]]1((1]]]]]]]]]]]1(++(1]]]]]]]]]]]1((1]]]]]]]]]]]1(++(1]]]]]]]]]]]1((1]]]]]]]]]]]1(++(1]]]]]]]]]]]1((1]]]]]]]]]]]1(++(1]]]]]]]]]]]1((1]]]]]]]]]]]1(++(1]]]]]]]]]]]1(",
"..........#2--+++++++++++++++[*4@,-+++++++++++++++--2#....................#2--+++(1]]]]]]]]]]]1((1]]]]]]]]]]]1(++(1]]]]]]]]]]]1((1]]]]]]]]]]]1(++(1]]]]]]]]]]]1((1]]]]]]]]]]]1(++(1]]]]]]]]]]]1((1]]]]]]]]]]]1(++(1]]]]]]]]]]]1((1]]]]]]]]]]]1(++(1]]]]]]]]]]]1((1]]]]]]]]]]]1(++(1]]]]]]]]]]]1((1]]]]]]]]]]]1(++(1]]]]]]]]]]]1(",
"..........#2--+++++++++++++++[*4@,-+++++++++++++++--2#....................#2--+++(1]]]]]]]]]]]1((1]]]]]]]]]]]1(++(1]]]]]]]]]]]1((1]]]]]]]]]]]1(++(1]]]]]]]]]]]1((1]]]]]]]]]]]1(++(1]]]]]]]]]]]1((1]]]]]]]]]]]1(++(1]]]]]]]]]]]1((1]]]]]]]]]]]1(++(1]]]]]]]]]]]1((1]]]]]]]]]]]1(++(1]]]]]]]]]]]1((1]]]]]]]]]]]1(++(1]]]]]]]]]]]1(",
"..........#2--+++++++++++++++[*4@,-+++++++++++++++--2#....................#2--+++(1]]]]]]]]]]]1((1]]]]]]]]]]]1(++(1]]]]]]]]]]]1((1]]]]]]]]]]]1(++(1]]]]]]]]]]]1((1]]]]]]]]]]]1(++(1]]]]]]]]]]]1((1]]]]]]]]]]]1(++(1]]]]]]]]]]]1((1]]]]]]]]]]]1(++(1]]]]]]]]]]]1((1]]]]]]]]]]]1(++(1]]]]]]]]]]]1((1]]]]]]]]]]]1(++(1]]]]]]]]]]]1(",
"..........#2--+++++++++++++++!3@@,-+++++++++++++++--2#....................#2--+++[1]]]]]]]]]]]1((1]]]]]]]]]]]1[++[1]]]]]]]]]]]1((1]]]]]]]]]]]1[++[1]]]]]]]]]]]1((1]]]]]]]]]]]1[++[1]]]]]]]]]]]1((1]]]]]]]]]]]1[++[1]]]]]]]]]]]1((1]]]]]]]]]]]1[++[1]]]]]]]]]]]1((1]]]]]]]]]]]1[++[1]]]]]]]]]]]1((1]]]]]]]]]]]1[++[1]]]]]]]]]]]1(",
"..........#2--+++++++++++++++!==,/-+++++++++++++++--2#....................#2--+++[%]]]]]]]]]]]1&&1]]]]]]]]]]]%[++[%]]]]]]]]]]]1&&1]]]]]]]]]]]%[++[%]]]]]]]]]]]1&&1]]]]]]]]]]]%[++[%]]]]]]]]]]]1&&1]]]]]]]]]]]%[++[%]]]]]]]]]]]1&&1]]]]]]]]]]]%[++[%]]]]]]]]]]]1&&1]]]]]]]]]]]%[++[%]]]]]]]]]]]1&&1]]]]]]]]]]]%[++[%]]]]]]]]]]]1&",
"..........#2--+++++++++++++++++---++++++++++++++++--2#....................#2--++++(%1111111111%&&%1111111111%(++++(%1111111111%&&%1111111111%(++++(%1111111111%&&%1111111111%(++++(%1111111111%&&%1111111111%(++++(%1111111111%&&%1111111111%(++++(%1111111111%&&%1111111111%(++++(%1111111111%&&%1111111111%(++++(%1111111111%&",
"..........#2--++++++++++++++++++++++++++++++++++++--2#....................#2--+++++[[[((((((([[[[[[[((((((([[++++++[[[((((((([[[[[[[((((((([[++++++[[[((((((([[[[[[[((((((([[++++++[[[((((((([[[[[[[((((((([[++++++[[[((((((([[[[[[[((((((([[++++++[[[((((((([[[[[[[((((((([[++++++[[[((((((([[[[[[[((((((([[++++++[[[((((((([[[",
"..........#2--++++++++++++++++++++++++++++++++++++--2#....................#2--++++++++++++++++++++++++++++++++++++++++++++++++++++++++++++++++++++++++++++++++++++++++++++++++++++++++++++++++++++++++++++++++++++++++++++++++++++++++++++++++++++++++++++++++++++++++++++++++++++++++++++++++++++++++++++++++++++++++++++++++++",
"..........#2--++++++++++++++++++++++++++++++++++++--2#....................#2--++++++++++++++++++++++++++++++++++++++++++++++++++++++++++++++++++++++++++++++++++++++++++++++++++++++++++++++++++++++++++++++++++++++++++++++++++++++++++++++++++++++++++++++++++++++++++++++++++++++++++++++++++++++++++++++++++++++++++++++++++",
"..........#2--++++++++++++++++++++++++++++++++++++--2#....................#2--++++++++++++++++++++++++++++++++++++++++++++++++++++++++++++++++++++++++++++++++++++++++++++++++++++++++++++++++++++++++++++++++++++++++++++++++++++++++++++++++++++++++++++++++++++++++++++++++++++++++++++++++++++++++++++++++++++++++++++++++++",
"..........#2--++++++++++++++++!!!!++++++++++++++++--2#....................#2----------------------------------------------------------------------------------------------------------------------------------------------------------------------------------------------------------------------------------------------------",
"..........#2--+++++++++++++++!3*3=++++++++++++++++--2#....................#22---------------------------------------------------------------------------------------------------------------------------------------------------------------------------------------------------------------------------------------------------",
"..........#2--+++++++++++++++[*4@=-+++++++++++++++--2#.....................#2222222222222222222222222222222222222222222222222222222222222222222222222222222222222222222222222222222222222222222222222222222222222222222222222222222222222222222222222222222222222222222222222222222222222222222222222222222222222222222222222222",
"..........#2--+++++++++++++++[*4@,-+++++++++++++++--2#......................####################################################################################################################################################################################################################################################",
"..........#2--+++++++++++++++[*4@,-+++++++++++++++--2#..........................................................................................................................................................................................................................................................................",
"..........#2--+++++++++++++++[*4@,-+++++++++++++++--2#..........................................................................................................................................................................................................................................................................",
"..........#2--+++++++++++++++[*4@,-+++++++++++++++--2#..........................................................................................................................................................................................................................................................................",
"..........#2--+++++++++++++++!3@@,-+++++++++++++++--2#..........................................................................................................................................................................................................................................................................",
"..........#2--+++++++++++++++!==,/-+++++++++++++++--2#..........................................................................................................................................................................................................................................................................",
"..........#2--+++++++++++++++++---++++++++++++++++--2#..........................................................................................................................................................................................................................................................................",
"..........#2--++++++++++++++++++++++++++++++++++++--2#..........................................................................................................................................................................................................................................................................",
"..........#2--+++++!![[[!!!++++++++++!![[[!!!+++++--2#..........................................................................................................................................................................................................................................................................",
"..........#2--++++!3*****3=+++++++++!3*****3=+++++--2#..........................................................................................................................................................................................................................................................................",
"..........#2--++++[*44444@=-++++++++[*44444@=-++++--2#..........................................................................................................................................................................................................................................................................",
"..........#2--++++!3@@@@@@,-++++++++!3@@@@@@,-++++--2#..........................................................................................................................................................................................................................................................................",
"..........#2--++++!==,,,,,/-++++++++!==,,,,,/-++++--2#..........................................................................................................................................................................................................................................................................",
"..........#2--++++++-------+++++++++++-------+++++--2#..........................................................................................................................................................................................................................................................................",
"..........#2--++++++++++++++++++++++++++++++++++++--2#..........................................................................................................................................................................................................................................................................",
"..........#2--++++++++++++++++!!!!++++++++++++++++--2#..........................................................................................................................................................................................................................................................................",
"..........#2--+++++++++++++++!3*3=++++++++++++++++--2#..........................................................................................................................................................................................................................................................................",
"..........#2--+++++++++++++++[*4@=-+++++++++++++++--2#..........................................................................................................................................................................................................................................................................",
"..........#2--+++++++++++++++[*4@,-+++++++++++++++--2#..........................................................................................................................................................................................................................................................................",
"..........#2--+++++++++++++++[*4@,-+++++++++++++++--2#..........................................................................................................................................................................................................................................................................",
"..........#2--+++++++++++++++[*4@,-+++++++++++++++--2#..........................................................................................................................................................................................................................................................................",
"..........#2--+++++++++++++++[*4@,-+++++++++++++++--22##########################################################################################################################################################################################################################################################################",
"..........#2--+++++++++++++++!3@@,-+++++++++++++++---222222222222222222222222222222222222222222222222222222222222222222222222222222222222222222222222222222222222222222222222222222222222222222222222222222222222222222222222222222222222222222222222222222222222222222222222222222222222222222222222222222222222222222222222222",
"..........#2--+++++++++++++++!==,/-++++++++++++++++-----------------------------------------------------------------------------------------------------------------------------------------------------------------------------------------------------------------------------------------------------------------------------",
"..........#2--+++++++++++++++++---++++++++++++++++++----------------------------------------------------------------------------------------------------------------------------------------------------------------------------------------------------------------------------------------------------------------------------",
"..........#2--++++++++++++++++++++++++++++++++++++++++++++++++++++++++++++++++++++++++++++++++++++++++++++++++++++++++++++++++++++++++++++++++++++++++++++++++++++++++++++++++++++++++++++++++++++++++++++++++++++++++++++++++++++++++++++++++++++++++++++++++++++++++++++++++++++++++++++++++++++++++++++++++++++++++++++++++++",
"..........#2--++++++++++++++++++++++++++++++++++++++++++++++++++++++++++++++++++++++++++++++++++++++++++++++++++++++++++++++++++++++++++++++++++++++++++++++++++++++++++++++++++++++++++++++++++++++++++++++++++++++++++++++++++++++++++++++++++++++++++++++++++++++++++++++++++++++++++++++++++++++++++++++++++++++++++++++++++",
"..........#2--++++++++++++++++++++++++++++++++++++++++++++++++++++++++++++++++++++++++++++++++++++++++++++++++++++++++++++++++++++++++++++++++++++++++++++++++++++++++++++++++++++++++++++++++++++++++++++++++++++++++++++++++++++++++++++++++++++++++++++++++++++++++++++++++++++++++++++++++++++++++++++++++++++++++++++++++++",
"..........#2--++++++++++++++++++++++++++++++++++++++++++++++++++++++++++++++++++++++++++++++++++++++++++++++++++++++++++++++++++++++++++++++++++++++++++++++++++++++++++++++++++++++++++++++++++++++++++++++++++++++++++++++++++++++++++++++++++++++++++++++++++++++++++++++++++++++++++++++++++++++++++++++++++++++++++++++++++",
"..........#2--++++++++++++++++!!!!++++++++++++++++++++++++++++!!!!++++++++++++++++++++++++++++!!!!++++++++++++++++++++++++++++!!!!++++++++++++++++++++++++++++!!!!++++++++++++++++++++++++++++!!!!++++++++++++++++++++++++++++!!!!++++++++++++++++++++++++++++!!!!++++++++++++++++++++++++++++!!!!++++++++++++++++++++++++++++!!",
"..........#2--+++++++++++++++!3*3=+++++++++++++++++++++++++++!3*3=+++++++++++++++++++++++++++!3*3=+++++++++++++++++++++++++++!3*3=+++++++++++++++++++++++++++!3*3=+++++++++++++++++++++++++++!3*3=+++++++++++++++++++++++++++!3*3=+++++++++++++++++++++++++++!3*3=+++++++++++++++++++++++++++!3*3=+++++++++++++++++++++++++++!3*",
"..........#2--+++++++++++++++[*4@=-++++++++++++++++++++++++++[*4@=-++++++++++++++++++++++++++[*4@=-++++++++++++++++++++++++++[*4@=-++++++++++++++++++++++++++[*4@=-++++++++++++++++++++++++++[*4@=-++++++++++++++++++++++++++[*4@=-++++++++++++++++++++++++++[*4@=-++++++++++++++++++++++++++[*4@=-++++++++++++++++++++++++++[*4",
"..........#2--+++++++++++++++[*4@,-++++++++++++++++++++++++++[*4@,-++++++++++++++++++++++++++[*4@,-++++++++++++++++++++++++++[*4@,-++++++++++++++++++++++++++[*4@,-++++++++++++++++++++++++++[*4@,-++++++++++++++++++++++++++[*4@,-++++++++++++++++++++++++++[*4@,-++++++++++++++++++++++++++[*4@,-++++++++++++++++++++++++++[*4",
"..........#2--+++++++++++++++[*4@,-++++++++++++++++++++++++++[*4@,-++++++++++++++++++++++++++[*4@,-++++++++++++++++++++++++++[*4@,-++++++++++++++++++++++++++[*4@,-++++++++++++++++++++++++++[*4@,-++++++++++++++++++++++++++[*4@,-++++++++++++++++++++++++++[*4@,-++++++++++++++++++++++++++[*4@,-++++++++++++++++++++++++++[*4",
"..........#2--+++++++++++++++[*4@,-++++++++++++++++++++++++++[*4@,-++++++++++++++++++++++++++[*4@,-++++++++++++++++++++++++++[*4@,-++++++++++++++++++++++++++[*4@,-++++++++++++++++++++++++++[*4@,-++++++++++++++++++++++++++[*4@,-++++++++++++++++++++++++++[*4@,-++++++++++++++++++++++++++[*4@,-++++++++++++++++++++++++++[*4",
"..........#2--+++++++++++++++[*4@,-++++++++++++++++++++++++++[*4@,-++++++++++++++++++++++++++[*4@,-++++++++++++++++++++++++++[*4@,-++++++++++++++++++++++++++[*4@,-++++++++++++++++++++++++++[*4@,-++++++++++++++++++++++++++[*4@,-++++++++++++++++++++++++++[*4@,-++++++++++++++++++++++++++[*4@,-++++++++++++++++++++++++++[*4",
"..........#2--+++++++++++++++!3@@,-++++++++++++++++++++++++++!3@@,-++++++++++++++++++++++++++!3@@,-++++++++++++++++++++++++++!3@@,-++++++++++++++++++++++++++!3@@,-++++++++++++++++++++++++++!3@@,-++++++++++++++++++++++++++!3@@,-++++++++++++++++++++++++++!3@@,-++++++++++++++++++++++++++!3@@,-++++++++++++++++++++++++++!3@",
"..........#2--+++++++++++++++!==,/-++++++++++++++++++++++++++!==,/-++++++++++++++++++++++++++!==,/-++++++++++++++++++++++++++!==,/-++++++++++++++++++++++++++!==,/-++++++++++++++++++++++++++!==,/-++++++++++++++++++++++++++!==,/-++++++++++++++++++++++++++!==,/-++++++++++++++++++++++++++!==,/-++++++++++++++++++++++++++!==",
"..........#2--+++++++++++++++++---+++++++++++++++++++++++++++++---+++++++++++++++++++++++++++++---+++++++++++++++++++++++++++++---+++++++++++++++++++++++++++++---+++++++++++++++++++++++++++++---+++++++++++++++++++++++++++++---+++++++++++++++++++++++++++++---+++++++++++++++++++++++++++++---+++++++++++++++++++++++++++++-",
"..........#2--++++++++++++++++++++++++++++++++++++++++++++++++++++++++++++++++++++++++++++++++++++++++++++++++++++++++++++++++++++++++++++++++++++++++++++++++++++++++++++++++++++++++++++++++++++++++++++++++++++++++++++++++++++++++++++++++++++++++++++++++++++++++++++++++++++++++++++++++++++++++++++++++++++++++++++++++++",
"..........#2--+++++!![[[!!!++++++++++!![[[!!!++++++!![[[!!!++++++++++!![[[!!!++++++!![[[!!!++++++++++!![[[!!!++++++!![[[!!!++++++++++!![[[!!!++++++!![[[!!!++++++++++!![[[!!!++++++!![[[!!!++++++++++!![[[!!!++++++!![[[!!!++++++++++!![[[!!!++++++!![[[!!!++++++++++!![[[!!!++++++!![[[!!!++++++++++!![[[!!!++++++!![[[!!!+++++",
"..........#2--++++!3*****3=+++++++++!3*****3=+++++!3*****3=+++++++++!3*****3=+++++!3*****3=+++++++++!3*****3=+++++!3*****3=+++++++++!3*****3=+++++!3*****3=+++++++++!3*****3=+++++!3*****3=+++++++++!3*****3=+++++!3*****3=+++++++++!3*****3=+++++!3*****3=+++++++++!3*****3=+++++!3*****3=+++++++++!3*****3=+++++!3*****3=+++++",
"..........#2--++++[*44444@=-++++++++[*44444@=-++++[*44444@=-++++++++[*44444@=-++++[*44444@=-++++++++[*44444@=-++++[*44444@=-++++++++[*44444@=-++++[*44444@=-++++++++[*44444@=-++++[*44444@=-++++++++[*44444@=-++++[*44444@=-++++++++[*44444@=-++++[*44444@=-++++++++[*44444@=-++++[*44444@=-++++++++[*44444@=-++++[*44444@=-++++",
"..........#2--++++!3@@@@@@,-++++++++!3@@@@@@,-++++!3@@@@@@,-++++++++!3@@@@@@,-++++!3@@@@@@,-++++++++!3@@@@@@,-++++!3@@@@@@,-++++++++!3@@@@@@,-++++!3@@@@@@,-++++++++!3@@@@@@,-++++!3@@@@@@,-++++++++!3@@@@@@,-++++!3@@@@@@,-++++++++!3@@@@@@,-++++!3@@@@@@,-++++++++!3@@@@@@,-++++!3@@@@@@,-++++++++!3@@@@@@,-++++!3@@@@@@,-++++",
"..........#2--++++!==,,,,,/-++++++++!==,,,,,/-++++!==,,,,,/-++++++++!==,,,,,/-++++!==,,,,,/-++++++++!==,,,,,/-++++!==,,,,,/-++++++++!==,,,,,/-++++!==,,,,,/-++++++++!==,,,,,/-++++!==,,,,,/-++++++++!==,,,,,/-++++!==,,,,,/-++++++++!==,,,,,/-++++!==,,,,,/-++++++++!==,,,,,/-++++!==,,,,,/-++++++++!==,,,,,/-++++!==,,,,,/-++++",
"..........#2--++++++-------+++++++++++-------+++++++-------+++++++++++-------+++++++-------+++++++++++-------+++++++-------+++++++++++-------+++++++-------+++++++++++-------+++++++-------+++++++++++-------+++++++-------+++++++++++-------+++++++-------+++++++++++-------+++++++-------+++++++++++-------+++++++-------+++++",
"..........#2--++++++++++++++++++++++++++++++++++++++++++++++++++++++++++++++++++++++++++++++++++++++++++++++++++++++++++++++++++++++++++++++++++++++++++++++++++++++++++++++++++++++++++++++++++++++++++++++++++++++++++++++++++++++++++++++++++++++++++++++++++++++++++++++++++++++++++++++++++++++++++++++++++++++++++++++++++"};
