/* XPM */
static char * map_xpm[] = {
"250 98 4 1",
" 	c None",
".	c #A289A289A289",
"X	c #FFFFFFFFFFFF",
"o	c #00000000FFFF",
" ........................................                                                                                                        ................................................                                                         ",
"..........................................                                                                                                      ..................................................                                                        ",
"..                                      ..                                                                                                      ..                                              ..                                                        ",
"..                                      ..                                                                                                      ..                                              ..                                                        ",
"..                                      ..                                                                                                      ..                                              ..                                                        ",
"..                                      ..                                                                                                      ..                                              ..                                                        ",
"..                                      ..                                                                                                      ..                X                             ..                                                        ",
"..         XXX               X          ..                                                                                                      ..        XXX         X                         ..                                                        ",
".. oooo   X     X X XX  XX  XX          ..                                                                                                      ..         X X X XX  XX  XXX X             oooo ..                                                        ",
"..  oo    X XXX X X X X X X  X          ..                                                                                                      ..         XX  XX X X X X X XXX             oo  ..                                                        ",
"..  oo    X   X X X X X X X  X          ..                                                                                                      ..         X X X  X X X  X  X               oo  ..                                                        ",
"..  oo     XXX   XX X X X X XXX         ..                                                                                                      ..        XXX  X  X  XX X X  X              oo  ..                                                        ",
"..  oo                                  ..                                                                                                      ..                       X                  oo  ..                                                        ",
"..  oo                                  ..                                                                                                      ..                                          oo  ..                                                        ",
"..  oo                                  ..                                                                                                      ..                                          oo  ..                                                        ",
"..  oo                                  ..                                                                                                      ..                                          oo  ..                                                        ",
"....oo...................................................                                                                                ...................................................oo........................................................... ",
"....oo....................................................                                                                              ....................................................oo............................................................",
"..  oo                                                  ..                                                                              ..                                                  oo                                                          ..",
"..  oo                                                  ..                                                                              ..                                                  oo                                                          ..",
"..  oo                                                  ..                                                                              ..                                                  oo                                                          ..",
"..  oo                                                  ..                                                                              ..                                                  oo                                                          ..",
"..  oo                  X                X              ..                                                                              ..                                                  oo                                                          ..",
"..  oo     XXXX                                         ..                                                                              ..                                                  oo                      XXX                                 ..",
".. oooo     X   XX   XXXX XX   X   X  X XX XX   XXX     ..                                                                              ..         oooo                                    oooo                    X   X  X  XX X  XX X  XX             ..",
"..  oo      XX  X X X X X X X XXX XXX XX X X X X X      ..                                                                              ..          oo                                                             X     X X X X X X X X X              ..",
"..  oo      X   X X  X  X X X X   X   X  X X X  X       ..                                                                              ..          oo                                                             X   X X X X X X X X X  X             ..",
"..  oo     XXXX X X X X X X X  X   X  X  X X X X X      ..                                                                              ..          oo                                                              XXX   X  X X X X X X XX             ..",
"..  oo               X                          X       ..                                                                              ..          oo                                                                                                  ..",
"..  oo                                                  ..                                                                              ..          oo                                                                                                  ..",
"..  oo                                                  ..                                                                              ..          oo                                                                                                  ..",
"..  oo                                                  ..                                                                              ..          oo                                                                                                  ..",
"....oo..............................................................................................................................................oo....................................................................................................",
"....oo..............................................................................................................................................oo................................................................................................... ",
"..  oo                                                                                                                                              oo                                                  ..                                                ",
"..  oo                                                                                                                                              oo                                                  ..                                                ",
"..  oo                                                                                                                                              oo                                                  ..                                                ",
"..  oo                                                                                                                                              oo                                                  ..                                                ",
"..  oo                                                                                                                                              oo                                                  ..                                                ",
"..  oo                                                                   XX  XX    X  X                                                             oo                                                  ..                                                ",
".. oooo                                                                   X  X X X X  X                                                            oooo                                                 ..                                                ",
"..  oo                                                                    XXXX X X X  X                                                             oo                                                  ..                                                ",
"..  oo                                                                    X  X X X X  X                                                             oo                                                  ..                                                ",
"..  oo                                                                   XX  XX XX X  X                                                             oo                                                  ..                                                ",
"..  oo                                                                                                                                              oo                                                  ..                                                ",
"..  oo                                                                                                                                              oo                                                  ..                                                ",
"..  oo                                                                                                                                              oo                                                  ..                                                ",
"..  oo                                                                                                                                              oo                                                  ..                                                ",
"....oo..............................................................................................................................................oo....................................................                                                ",
"....oo..............................................................................................................................................oo...................................................                                                 ",
"..  oo                                  ..              ..                                                                                          oo                          ..                                                                        ",
"..  oo                                  ..              ..                                                                                          oo                          ..                                                                        ",
"..  oo                                  ..              ..                                                                                          oo                          ..                                                                        ",
"..  oo                                  ..              ..                                                                                          oo                          ..                                                                        ",
"..  oo                                  ..              ..        XXX                                                                               oo                          ..                                                                        ",
"..  oo      XXXX                        ..              ..       X   X X  X X XXX X                                                                 oo                          ..                                                                        ",
"..  oo       X  X  X   X   X  X X       ..              ..       X      X XX X X X X                               oooo                            oooo                         ..                                                                        ",
".. oooo      X  X XXX X   X X X X       ..              ..       X   X XX X   X  X X                                oo                                                          ..                                                                        ",
"..  oo       X  X X   X   X X X X       ..              ..        XXX  XX X  X X  X                                 oo                                                          ..                                                                        ",
"..  oo      XXXX   X   X   X   X        ..              ..                    X                                     oo                                                          ..                                                                        ",
"..  oo                         X        ..              ..                                                          oo                                                          ..                                                                        ",
"..  oo                        X         ..              ..                                                          oo                                                          ..                                                                        ",
"..  oo                                  ..              ..                                                          oo                                                          ..                                                                        ",
"..  oo                                  ..              ..                                                          oo                                                          ..                                                                        ",
"....oo....................................              ............................................................oo............................................................                                                                        ",
"....oo...................................                ...........................................................oo...........................................................                                                                         ",
"..  oo                  ..                                                      ..                                  oo                          ..                                                                                                        ",
"..  oo                  ..                                                      ..                                  oo                          ..                                                                                                        ",
"..  oo                  ..                                                      ..                                  oo                          ..                                                                                                        ",
"..  oo                  ..                                                      ..                                  oo                          ..                                                                                                        ",
"..  oo                  ..                                                      ..                   X              oo                          ..                                                                                                        ",
"..  ooXXXX          X   ..                                                      ..   XXX XXX       X          X     oo                          ..                                                                                                        ",
"..  oo X  X  X   X  X X ..                                                      ..    XX XX   X   XX X  X  X  X    oooo                         ..                                                                                                        ",
".. ooooX  X X X X   XX  ..                                                      ..    X X X  XXX X X X X    X X     oo                          ..                                                                                                        ",
"..     X  X X X X   XX  ..                                                      ..    X X X  X   X X X X   XX X     oo                          ..                                                                                                        ",
"..    XXXX   X   X  X X ..                                                      ..   XX   XX  X   XX X  X  XX X     oo                          ..                                                                                                        ",
"..                      ..                                                      ..                                  oo                          ..                                                                                                        ",
"..                      ..                                                      ..                                  oo                          ..                                                                                                        ",
"..                      ..                                                      ..                                  oo                          ..                                                                                                        ",
"..                      ..                                                      ..                                  oo                          ..                                                                                                        ",
"..........................                                                      ....................................oo............................                                                                                                        ",
" ........................                                                        ...................................oo...........................                                                                                                         ",
"                                                                                                                ..  oo                  ..                                                                                                                ",
"                                                                                                                ..  oo                  ..                                                                                                                ",
"                                                                                                                ..  oo                  ..                                                                                                                ",
"                                                                                                                ..  oo                  ..                                                                                                                ",
"                                                                                                                ..  oo                  ..                                                                                                                ",
"                                                                                                                ..  oo     XXX  XX      ..                                                                                                                ",
"                                                                                                                ..  oo    X       X     ..                                                                                                                ",
"                                                                                                                .. oooo   X XXX  X      ..                                                                                                                ",
"                                                                                                                ..        X   X X       ..                                                                                                                ",
"                                                                                                                ..         XXX  XXX     ..                                                                                                                ",
"                                                                                                                ..                      ..                                                                                                                ",
"                                                                                                                ..                      ..                                                                                                                ",
"                                                                                                                ..                      ..                                                                                                                ",
"                                                                                                                ..                      ..                                                                                                                ",
"                                                                                                                ..........................                                                                                                                ",
"                                                                                                                 ........................                                                                                                                 "};
